﻿[
    {
      "name": "ยุทธศาสตร์ชาติด้านความมั่นคง",
      "id": "Y101",
      "localid": 1,
      "depth": 0,
      "shape": "",
      "children": [
        {
          "name": "เป้าหมาย",
          "id": "Y10101",
          "localid": 1,
          "depth": 1,
          "parentid": "Y101",
          "shape": "",
          "children": [
            {
              "name": "1. ประชาชนอยู่ดี กินดี และมีความสุข",
              "id": "Y1010101",
              "localid": 1,
              "depth": 2,
              "parentid": "Y10101",
              "shape": "",
              "_checkenabled": true,
              "kpi_id": "Y10102"
            },
            {
              "name": "2. บ้านเมืองมีความมั่นคงในทุกมิติและทุกระดับ",
              "id": "Y1010102",
              "localid": 2,
              "depth": 2,
              "parentid": "Y10101",
              "shape": "",
              "_checkenabled": true,
              "kpi_id": "Y10102"
            },
            {
              "name": "3. กองทัพ หน่วยงานด้านความมั่นคง ภาครัฐ ภาคเอกชน และภาคประชาชน มีความพร้อมในการป้องกันและแก้ไขปัญหาความมั่นคง",
              "id": "Y1010103",
              "localid": 3,
              "depth": 2,
              "parentid": "Y10101",
              "shape": "",
              "_checkenabled": true,
              "kpi_id": "Y10102"
            },
            {
              "name": "4. ประเทศไทยมีบทบาทด้านความมั่นคงเป็นที่ชื่นชมและได้รับการยอมรับโดยประชาคมระหว่างประเทศ",
              "id": "Y1010104",
              "localid": 4,
              "depth": 2,
              "parentid": "Y10101",
              "shape": "",
              "_checkenabled": true,
              "kpi_id": "Y10102"
            },
            {
              "name": "5. การบริหารจัดการความมั่นคงมีผลสำเร็จที่เป็นรูปธรรมอย่างมีประสิทธิภาพ",
              "id": "Y1010105",
              "localid": 5,
              "depth": 2,
              "parentid": "Y10101",
              "shape": "",
              "_checkenabled": true,
              "kpi_id": "Y10102"
            }
          ]
        },
        {
          "name": "ประเด็น",
          "id": "Y10103",
          "localid": 3,
          "depth": 1,
          "parentid": "Y101",
          "shape": "",
          "children": [
            {
              "name": "1. การรักษาความสงบภายในประเทศ",
              "id": "Y1010301",
              "localid": 1,
              "depth": 2,
              "parentid": "Y10103",
              "shape": "",
              "children": [
                {
                  "name": "ประเด็นการดำเนินการที่สำคัญ",
                  "id": "Y101030101",
                  "localid": 1,
                  "depth": 3,
                  "parentid": "Y1010301",
                  "shape": "",
                  "children": [
                    {
                      "name": "1.1 การพัฒนาและเสริมสร้างคนในทุกภาคส่วนให้มีความเข้มแข็ง มีความพร้อม ตระหนักในเรื่องความมั่นคง และมีส่วนร่วมในการแก้ไขปัญหา",
                      "id": "Y10103010101",
                      "localid": 1,
                      "depth": 4,
                      "parentid": "Y101030101",
                      "shape": "",
                      "_checkenabled": true
                    },
                    {
                      "name": "1.2 การพัฒนาและเสริมสร้างความจงรักภักดีต่อสถาบันหลักของชาติ",
                      "id": "Y10103010102",
                      "localid": 2,
                      "depth": 4,
                      "parentid": "Y101030101",
                      "shape": "",
                      "_checkenabled": true
                    },
                    {
                      "name": "1.3 การพัฒนาและเสริมสร้างการเมืองในระบอบประชาธิปไตยอันมีพระมหากษัตริย์ทรงเป็นประมุขที่มีเสถียรภาพ และมีธรรมาภิบาล เห็นแก่ประโยชน์ของประเทศชาติมากกว่าประโยชน์ส่วนตน",
                      "id": "Y10103010103",
                      "localid": 3,
                      "depth": 4,
                      "parentid": "Y101030101",
                      "shape": "",
                      "_checkenabled": true
                    },
                    {
                      "name": "1.4 การพัฒนาและเสริมสร้างกลไกที่สามารถป้องกันและขจัดสาเหตุของประเด็นปัญหาความมั่นคงที่สำคัญ",
                      "id": "Y10103010104",
                      "localid": 4,
                      "depth": 4,
                      "parentid": "Y101030101",
                      "shape": "",
                      "_checkenabled": true
                    }
                  ]
                }
              ]
            },
            {
              "name": "2. การป้องกันและแก้ไขปัญหาที่มีผลกระทบต่อความมั่นคง",
              "id": "Y1010302",
              "localid": 2,
              "depth": 2,
              "parentid": "Y10103",
              "shape": "",
              "children": [
                {
                  "name": "ประเด็นการดำเนินการที่สำคัญ",
                  "id": "Y101030201",
                  "localid": 1,
                  "depth": 3,
                  "parentid": "Y1010302",
                  "shape": "",
                  "children": [
                    {
                      "name": "2.1 การแก้ไขปัญหาความมั่นคงในปัจจุบัน",
                      "id": "Y10103020101",
                      "localid": 1,
                      "depth": 4,
                      "parentid": "Y101030201",
                      "shape": "",
                      "_checkenabled": true
                    },
                    {
                      "name": "2.2 การติดตาม เฝ้าระวัง ป้องกัน และแก้ไขปัญหาที่อาจอุบัติขึ้นใหม่",
                      "id": "Y10103020102",
                      "localid": 2,
                      "depth": 4,
                      "parentid": "Y101030201",
                      "shape": "",
                      "_checkenabled": true
                    },
                    {
                      "name": "2.3 การสร้างความปลอดภัยและความสันติสุขอย่างถาวรในพื้นที่จังหวัดชายแดนภาคใต้",
                      "id": "Y10103020103",
                      "localid": 3,
                      "depth": 4,
                      "parentid": "Y101030201",
                      "shape": "",
                      "_checkenabled": true
                    },
                    {
                      "name": "2.4 การรักษาความมั่นคงและผลประโยชน์ทางทรัพยากรธรรมชาติและสิ่งแวดล้อมทั้งทางบกและทางทะเล",
                      "id": "Y10103020104",
                      "localid": 4,
                      "depth": 4,
                      "parentid": "Y101030201",
                      "shape": "",
                      "_checkenabled": true
                    }
                  ]
                }
              ]
            },
            {
              "name": "3. การพัฒนาศักยภาพของประเทศให้พร้อมเผชิญภัยคุกคามที่กระทบต่อความมั่นคงของชาติ",
              "id": "Y1010303",
              "localid": 3,
              "depth": 2,
              "parentid": "Y10103",
              "shape": "",
              "children": [
                {
                  "name": "ประเด็นการดำเนินการที่สำคัญ",
                  "id": "Y101030301",
                  "localid": 1,
                  "depth": 3,
                  "parentid": "Y1010303",
                  "shape": "",
                  "children": [
                    {
                      "name": "3.1 การพัฒนาระบบงานข่าวกรองแห่งชาติแบบบูรณาการอย่างมีประสิทธิภาพ",
                      "id": "Y10103030101",
                      "localid": 1,
                      "depth": 4,
                      "parentid": "Y101030301",
                      "shape": "",
                      "_checkenabled": true
                    },
                    {
                      "name": "3.2 การพัฒนาและผนึกพลังอำนาจแห่งชาติ กองทัพและหน่วยงานความมั่นคง รวมทั้งภาครัฐและภาคประชาชน ให้พร้อมป้องกันและรักษาอธิปไตยของประเทศ และเผชิญกับภัยคุกคามได้ทุกมิติทุกรูปแบบและทุกระดับ",
                      "id": "Y10103030102",
                      "localid": 2,
                      "depth": 4,
                      "parentid": "Y101030301",
                      "shape": "",
                      "_checkenabled": true
                    },
                    {
                      "name": "3.3 การพัฒนาระบบเตรียมพร้อมแห่งชาติและการบริหารจัดการภัยคุกคามให้มีประสิทธิภาพ",
                      "id": "Y10103030103",
                      "localid": 3,
                      "depth": 4,
                      "parentid": "Y101030301",
                      "shape": "",
                      "_checkenabled": true
                    }
                  ]
                }
              ]
            },
            {
              "name": "4. การบูรณาการความร่วมมือด้านความมั่นคงกับอาเซียนและนานาชาติ รวมถึงองค์กรภาครัฐและที่มิใช่ภาครัฐ",
              "id": "Y1010304",
              "localid": 4,
              "depth": 2,
              "parentid": "Y10103",
              "shape": "",
              "children": [
                {
                  "name": "ประเด็นการดำเนินการที่สำคัญ",
                  "id": "Y101030401",
                  "localid": 1,
                  "depth": 3,
                  "parentid": "Y1010304",
                  "shape": "",
                  "children": [
                    {
                      "name": "4.1 การเสริมสร้างและรักษาดุลยภาพสภาวะแวดล้อมระหว่างประเทศ",
                      "id": "Y10103040101",
                      "localid": 1,
                      "depth": 4,
                      "parentid": "Y101030401",
                      "shape": "",
                      "_checkenabled": true
                    },
                    {
                      "name": "4.2 การเสริมสร้างและธำรงไว้ซึ่งสันติภาพและความมั่นคงของภูมิภาค",
                      "id": "Y10103040102",
                      "localid": 2,
                      "depth": 4,
                      "parentid": "Y101030401",
                      "shape": "",
                      "_checkenabled": true
                    },
                    {
                      "name": "4.3 การร่วมมือทางการพัฒนากับประเทศเพื่อนบ้าน ภูมิภาค โลก รวมถึงองค์กรภาครัฐและที่มิใช่ภาครัฐ",
                      "id": "Y10103040103",
                      "localid": 3,
                      "depth": 4,
                      "parentid": "Y101030401",
                      "shape": "",
                      "_checkenabled": true
                    }
                  ]
                }
              ]
            },
            {
              "name": "5. การพัฒนากลไกการบริหารจัดการความมั่นคงแบบองค์รวม",
              "id": "Y1010305",
              "localid": 5,
              "depth": 2,
              "parentid": "Y10103",
              "shape": "",
              "children": [
                {
                  "name": "ประเด็นการดำเนินการที่สำคัญ",
                  "id": "Y101030501",
                  "localid": 1,
                  "depth": 3,
                  "parentid": "Y1010305",
                  "shape": "",
                  "children": [
                    {
                      "name": "5.1 การพัฒนากลไกให้พร้อมสำหรับการติดตาม เฝ้าระวัง แจ้งเตือน ป้องกัน และแก้ไขปัญหาความมั่นคงแบบองค์รวม อย่างเป็นรูปธรรม",
                      "id": "Y10103050101",
                      "localid": 1,
                      "depth": 4,
                      "parentid": "Y101030501",
                      "shape": "",
                      "_checkenabled": true
                    },
                    {
                      "name": "5.2 การบริหารจัดการความมั่นคงให้เอื้ออำนวยต่อการพัฒนาประเทศในมิติอื่น ๆ",
                      "id": "Y10103050102",
                      "localid": 2,
                      "depth": 4,
                      "parentid": "Y101030501",
                      "shape": "",
                      "_checkenabled": true
                    },
                    {
                      "name": "5.3 การพัฒนากลไกและองค์กรขับเคลื่อนยุทธศาสตร์ชาติด้านความมั่นคง",
                      "id": "Y10103050103",
                      "localid": 3,
                      "depth": 4,
                      "parentid": "Y101030501",
                      "shape": "",
                      "_checkenabled": true
                    }
                  ]
                }
              ]
            }
          ]
        }
      ]
    },
    {
        "name": "ยุทธศาสตร์ชาติด้านการสร้างความสามารถในการแข่งขัน",
        "id": "Y201",
        "localid": 1,
        "depth": 0,
        "shape": "",
        "children": [{
            "name": "เป้าหมาย",
            "id": "Y20101",
            "localid": 1,
            "depth": 1,
            "parentid": "Y201",
            "shape": "",
            "children": [{
                "name": "1. ประเทศไทยเป็นประเทศที่พัฒนาแล้ว เศรษฐกิจเติบโตอย่างมีเสถียรภาพและยั่งยืน",
                "id": "Y2010101",
                "localid": 1,
                "depth": 2,
                "parentid": "Y20101",
                "shape": "",
                "_checkenabled": true,
                "kpi_id": "Y20102"
            }, {
                "name": "2. ประเทศไทยมีขีดความสามารถในการแข่งขันสูงขึ้น",
                "id": "Y2010102",
                "localid": 2,
                "depth": 2,
                "parentid": "Y20101",
                "shape": "",
                "_checkenabled": true,
                "kpi_id": "Y20102"
            }]
        }, {
            "name": "ประเด็น",
            "id": "Y20103",
            "localid": 3,
            "depth": 1,
            "parentid": "Y201",
            "shape": "",
            "children": [{
                "name": "1. การเกษตรสร้างมูลค่า",
                "id": "Y2010301",
                "localid": 1,
                "depth": 2,
                "parentid": "Y20103",
                "shape": "",
                "children": [{
                    "name": "1. เกษตรอัตลักษณ์พื้นถิ่น",
                    "id": "Y201030101",
                    "localid": 1,
                    "depth": 3,
                    "parentid": "Y2010301",
                    "shape": "",
                    "_checkenabled": true
                }, {
                    "name": "2. เกษตรปลอดภัย",
                    "id": "Y201030102",
                    "localid": 2,
                    "depth": 3,
                    "parentid": "Y2010301",
                    "shape": "",
                    "_checkenabled": true
                }, {
                    "name": "3. เกษตรชีวภาพ",
                    "id": "Y201030103",
                    "localid": 3,
                    "depth": 3,
                    "parentid": "Y2010301",
                    "shape": "",
                    "_checkenabled": true
                }, {
                    "name": "4. เกษตรแปรรูป",
                    "id": "Y201030104",
                    "localid": 4,
                    "depth": 3,
                    "parentid": "Y2010301",
                    "shape": "",
                    "_checkenabled": true
                }, {
                    "name": "5. เกษตรอัจฉริยะ",
                    "id": "Y201030105",
                    "localid": 5,
                    "depth": 3,
                    "parentid": "Y2010301",
                    "shape": "",
                    "_checkenabled": true
                }]
            }, {
                "name": "2. อุตสาหกรรมและบริการแห่งอนาคต",
                "id": "Y2010302",
                "localid": 2,
                "depth": 2,
                "parentid": "Y20103",
                "shape": "",
                "children": [{
                    "name": "1. อุตสาหกรรมชีวภาพ",
                    "id": "Y201030201",
                    "localid": 1,
                    "depth": 3,
                    "parentid": "Y2010302",
                    "shape": "",
                    "_checkenabled": true
                }, {
                    "name": "2. อุตสาหกรรมและบริการการแพทย์ครบวงจร",
                    "id": "Y201030202",
                    "localid": 2,
                    "depth": 3,
                    "parentid": "Y2010302",
                    "shape": "",
                    "_checkenabled": true
                }, {
                    "name": "3. อุตสาหกรรมและบริการดิจิทัล ข้อมูล และปัญญาประดิษฐ์",
                    "id": "Y201030203",
                    "localid": 3,
                    "depth": 3,
                    "parentid": "Y2010302",
                    "shape": "",
                    "_checkenabled": true
                }, {
                    "name": "4. อุตสาหกรรมและบริการขนส่งและโลจิสติกส์",
                    "id": "Y201030204",
                    "localid": 4,
                    "depth": 3,
                    "parentid": "Y2010302",
                    "shape": "",
                    "_checkenabled": true
                }, {
                    "name": "5. อุตสาหกรรมความมั่นคงของประเทศ",
                    "id": "Y201030205",
                    "localid": 5,
                    "depth": 3,
                    "parentid": "Y2010302",
                    "shape": "",
                    "_checkenabled": true
                }]
            }, {
                "name": "3. สร้างความหลากหลายด้านการท่องเที่ยว",
                "id": "Y2010303",
                "localid": 3,
                "depth": 2,
                "parentid": "Y20103",
                "shape": "",
                "children": [{
                    "name": "1. ท่องเที่ยวเชิงสร้างสรรค์และวัฒนธรรม",
                    "id": "Y201030301",
                    "localid": 1,
                    "depth": 3,
                    "parentid": "Y2010303",
                    "shape": "",
                    "_checkenabled": true
                }, {
                    "name": "2. ท่องเที่ยวเชิงธุรกิจ",
                    "id": "Y201030302",
                    "localid": 2,
                    "depth": 3,
                    "parentid": "Y2010303",
                    "shape": "",
                    "_checkenabled": true
                }, {
                    "name": "3. ท่องเที่ยวเชิงสุขภาพ ความงาม และแพทย์แผนไทย",
                    "id": "Y201030303",
                    "localid": 3,
                    "depth": 3,
                    "parentid": "Y2010303",
                    "shape": "",
                    "_checkenabled": true
                }, {
                    "name": "4. ท่องเที่ยวสำราญทางน้ำ",
                    "id": "Y201030304",
                    "localid": 4,
                    "depth": 3,
                    "parentid": "Y2010303",
                    "shape": "",
                    "_checkenabled": true
                }, {
                    "name": "5. ท่องเที่ยวเชื่อมโยงภูมิภาค",
                    "id": "Y201030305",
                    "localid": 5,
                    "depth": 3,
                    "parentid": "Y2010303",
                    "shape": "",
                    "_checkenabled": true
                }]
            }, {
                "name": "4. โครงสร้างพื้นฐาน เชื่อมไทย เชื่อมโลก",
                "id": "Y2010304",
                "localid": 4,
                "depth": 2,
                "parentid": "Y20103",
                "shape": "",
                "children": [{
                    "name": "1. เชื่อมโยงโครงข่ายคมนาคมไร้รอยต่อ",
                    "id": "Y201030401",
                    "localid": 1,
                    "depth": 3,
                    "parentid": "Y2010304",
                    "shape": "",
                    "_checkenabled": true
                }, {
                    "name": "2. สร้างและพัฒนาเขตเศรษฐกิจพิเศษ",
                    "id": "Y201030402",
                    "localid": 2,
                    "depth": 3,
                    "parentid": "Y2010304",
                    "shape": "",
                    "_checkenabled": true
                }, {
                    "name": "3. เพิ่มพื้นที่และเมืองเศรษฐกิจ",
                    "id": "Y201030403",
                    "localid": 3,
                    "depth": 3,
                    "parentid": "Y2010304",
                    "shape": "",
                    "_checkenabled": true
                }, {
                    "name": "4. พัฒนาโครงสร้างพื้นฐานเทคโนโลยีสมัยใหม่",
                    "id": "Y201030404",
                    "localid": 4,
                    "depth": 3,
                    "parentid": "Y2010304",
                    "shape": "",
                    "_checkenabled": true
                }, {
                    "name": "5. รักษาและเสริมสร้างเสถียรภาพทางเศรษฐกิจมหภาค",
                    "id": "Y201030405",
                    "localid": 5,
                    "depth": 3,
                    "parentid": "Y2010304",
                    "shape": "",
                    "_checkenabled": true
                }]
            }, {
                "name": "5. พัฒนาเศรษฐกิจบนพื้นฐานผู้ประกอบการยุคใหม่",
                "id": "Y2010305",
                "localid": 5,
                "depth": 2,
                "parentid": "Y20103",
                "shape": "",
                "children": [{
                    "name": "1. สร้างผู้ประกอบการอัจฉริยะ",
                    "id": "Y201030501",
                    "localid": 1,
                    "depth": 3,
                    "parentid": "Y2010305",
                    "shape": "",
                    "_checkenabled": true
                }, {
                    "name": "2. สร้างโอกาสเข้าถึงบริการทางการเงิน",
                    "id": "Y201030502",
                    "localid": 2,
                    "depth": 3,
                    "parentid": "Y2010305",
                    "shape": "",
                    "_checkenabled": true
                }, {
                    "name": "3. สร้างโอกาสเข้าถึงตลาด",
                    "id": "Y201030503",
                    "localid": 3,
                    "depth": 3,
                    "parentid": "Y2010305",
                    "shape": "",
                    "_checkenabled": true
                }, {
                    "name": "4. สร้างโอกาสเข้าถึงข้อมูล",
                    "id": "Y201030504",
                    "localid": 4,
                    "depth": 3,
                    "parentid": "Y2010305",
                    "shape": "",
                    "_checkenabled": true
                }, {
                    "name": "5. ปรับบทบาทและโอกาสการเข้าถึงบริการภาครัฐ",
                    "id": "Y201030505",
                    "localid": 5,
                    "depth": 3,
                    "parentid": "Y2010305",
                    "shape": "",
                    "_checkenabled": true
                }]
            }]
        }]
    },
    {
        "name": "ยุทธศาสตร์ด้านการพัฒนาและเสริมสร้างศักยภาพมนุษย์",
        "id": "Y301",
        "localid": 1,
        "depth": 0,
        "shape": "",
        "children": [{
            "name": "เป้าหมาย",
            "id": "Y30101",
            "localid": 1,
            "depth": 1,
            "parentid": "Y301",
            "shape": "",
            "children": [{
                "name": "1. คนไทยเป็นคนดี คนเก่ง มีคุณภาพ พร้อมสำหรับวิถีชีวิตในศตวรรษที่ 21",
                "id": "Y3010101",
                "localid": 1,
                "depth": 2,
                "parentid": "Y30101",
                "shape": "",
                "_checkenabled": true,
                "kpi_id": "Y30102"
            }, {
                "name": "2. สังคมไทยมีสภาพแวดล้อมที่เอื้อและสนับสนุนต่อการพัฒนาคนตลอดช่วงชีวิต",
                "id": "Y3010102",
                "localid": 2,
                "depth": 2,
                "parentid": "Y30101",
                "shape": "",
                "_checkenabled": true,
                "kpi_id": "Y30102"
            }]
        }, {
            "name": "ประเด็น",
            "id": "Y30103",
            "localid": 3,
            "depth": 1,
            "parentid": "Y301",
            "shape": "",
            "children": [{
                "name": "1. การปรับเปลี่ยนค่านิยมและวัฒนธรรม",
                "id": "Y3010301",
                "localid": 1,
                "depth": 2,
                "parentid": "Y30103",
                "shape": "",
                "children": [{
                    "name": "1.1 การปลูกฝังค่านิยมและวัฒนธรรมผ่านการเลี้ยงดูในครอบครัว",
                    "id": "Y301030101",
                    "localid": 1,
                    "depth": 3,
                    "parentid": "Y3010301",
                    "shape": "",
                    "_checkenabled": true
                }, {
                    "name": "1.2\tการบูรณาการเรื่องความซื่อสัตย์ วินัย คุณธรรม จริยธรรม ในการจัดการเรียนการสอนในสถานศึกษา",
                    "id": "Y301030102",
                    "localid": 2,
                    "depth": 3,
                    "parentid": "Y3010301",
                    "shape": "",
                    "_checkenabled": true
                }, {
                    "name": "1.3\tการสร้างความเข้มแข็งในสถาบันทางศาสนา",
                    "id": "Y301030103",
                    "localid": 3,
                    "depth": 3,
                    "parentid": "Y3010301",
                    "shape": "",
                    "_checkenabled": true
                }, {
                    "name": "1.4\tการปลูกฝังค่านิยมและวัฒนธรรมโดยใช้ชุมชนเป็นฐาน",
                    "id": "Y301030104",
                    "localid": 4,
                    "depth": 3,
                    "parentid": "Y3010301",
                    "shape": "",
                    "_checkenabled": true
                }, {
                    "name": "1.5\tการสร้างค่านิยมและวัฒนธรรมที่พึงประสงค์จากภาคธุรกิจ",
                    "id": "Y301030105",
                    "localid": 5,
                    "depth": 3,
                    "parentid": "Y3010301",
                    "shape": "",
                    "_checkenabled": true
                }, {
                    "name": "1.6\tการใช้สื่อและสื่อสารมวลชนในการปลูกฝังค่านิยมและวัฒนธรรมของคนในสังคม",
                    "id": "Y301030106",
                    "localid": 6,
                    "depth": 3,
                    "parentid": "Y3010301",
                    "shape": "",
                    "_checkenabled": true
                }, {
                    "name": "1.7\tการส่งเสริมให้คนไทยมีจิตสาธารณะและมีความรับผิดชอบต่อส่วนรวม",
                    "id": "Y301030107",
                    "localid": 7,
                    "depth": 3,
                    "parentid": "Y3010301",
                    "shape": "",
                    "_checkenabled": true
                }]
            }, {
                "name": "2. การพัฒนาศักยภาพคนตลอดช่วงชีวิต",
                "id": "Y3010302",
                "localid": 2,
                "depth": 2,
                "parentid": "Y30103",
                "shape": "",
                "children": [{
                    "name": "2.1\tช่วงการตั้งครรภ์ / ปฐมวัย",
                    "id": "Y301030201",
                    "localid": 1,
                    "depth": 3,
                    "parentid": "Y3010302",
                    "shape": "",
                    "_checkenabled": true
                }, {
                    "name": "2.2\tช่วงวัยเรียน / วัยรุ่น",
                    "id": "Y301030202",
                    "localid": 2,
                    "depth": 3,
                    "parentid": "Y3010302",
                    "shape": "",
                    "_checkenabled": true
                }, {
                    "name": "2.3\tช่วงวัยแรงงาน",
                    "id": "Y301030203",
                    "localid": 3,
                    "depth": 3,
                    "parentid": "Y3010302",
                    "shape": "",
                    "_checkenabled": true
                }, {
                    "name": "2.4\tช่วงวัยผู้สูงอายุ",
                    "id": "Y301030204",
                    "localid": 4,
                    "depth": 3,
                    "parentid": "Y3010302",
                    "shape": "",
                    "_checkenabled": true
                }]
            }, {
                "name": "3. ปฏิรูปกระบวนการเรียนรู้ที่ตอบสนองต่อการเปลี่ยนแปลงในศตวรรษที่ 21",
                "id": "Y3010303",
                "localid": 3,
                "depth": 2,
                "parentid": "Y30103",
                "shape": "",
                "children": [{
                    "name": "3.1\tการปรับเปลี่ยนระบบการเรียนรู้ให้เอื้อต่อการพัฒนาทักษะสำหรับศตวรรษที่ 21",
                    "id": "Y301030301",
                    "localid": 1,
                    "depth": 3,
                    "parentid": "Y3010303",
                    "shape": "",
                    "_checkenabled": true
                }, {
                    "name": "3.2\tการเปลี่ยนโฉมบทบาท ‘ครู’ให้เป็นครูยุคใหม่",
                    "id": "Y301030302",
                    "localid": 2,
                    "depth": 3,
                    "parentid": "Y3010303",
                    "shape": "",
                    "_checkenabled": true
                }, {
                    "name": "3.3\tการเพิ่มประสิทธิภาพระบบบริหารจัดการศึกษาในทุกระดับ ทุกประเภท",
                    "id": "Y301030303",
                    "localid": 3,
                    "depth": 3,
                    "parentid": "Y3010303",
                    "shape": "",
                    "_checkenabled": true
                }, {
                    "name": "3.4\tการพัฒนาระบบการเรียนรู้ตลอดชีวิต",
                    "id": "Y301030304",
                    "localid": 4,
                    "depth": 3,
                    "parentid": "Y3010303",
                    "shape": "",
                    "_checkenabled": true
                }, {
                    "name": "3.5\tการสร้างความตื่นตัวให้คนไทยตระหนักถึงบทบาท ความรับผิดชอบ และการวางตำแหน่งของประเทศไทยในภูมิภาคเอเชียอาคเนย์และประชาคมโลก",
                    "id": "Y301030305",
                    "localid": 5,
                    "depth": 3,
                    "parentid": "Y3010303",
                    "shape": "",
                    "_checkenabled": true
                }, {
                    "name": "3.6\tการวางพื้นฐานระบบรองรับการเรียนรู้โดยใช้ดิจิทัลแพลตฟอร์ม",
                    "id": "Y301030306",
                    "localid": 6,
                    "depth": 3,
                    "parentid": "Y3010303",
                    "shape": "",
                    "_checkenabled": true
                }, {
                    "name": "3.7\tการสร้างระบบการศึกษาเพื่อเป็นเลิศทางวิชาการระดับนานาชาติ",
                    "id": "Y301030307",
                    "localid": 7,
                    "depth": 3,
                    "parentid": "Y3010303",
                    "shape": "",
                    "_checkenabled": true
                }]
            }, {
                "name": "4. การตระหนักถึงพหุปัญญาของมนุษย์ที่หลากหลาย",
                "id": "Y3010304",
                "localid": 4,
                "depth": 2,
                "parentid": "Y30103",
                "shape": "",
                "children": [{
                    "name": "4.1\tการพัฒนาและส่งเสริมพหุปัญญาผ่านครอบครัว ระบบสถานศึกษา สภาพแวดล้อม รวมทั้งสื่อ",
                    "id": "Y301030401",
                    "localid": 1,
                    "depth": 3,
                    "parentid": "Y3010304",
                    "shape": "",
                    "_checkenabled": true
                }, {
                    "name": "4.2\tการสร้างเส้นทางอาชีพ สภาพแวดล้อมการทำงาน และระบบสนับสนุน ที่เหมาะสมสำหรับผู้ที่มีความสามารถพิเศษผ่านกลไกต่าง ๆ",
                    "id": "Y301030402",
                    "localid": 2,
                    "depth": 3,
                    "parentid": "Y3010304",
                    "shape": "",
                    "_checkenabled": true
                }, {
                    "name": "4.3\tการดึงดูดกลุ่มผู้เชี่ยวชาญต่างชาติและคนไทยที่มีความสามารถในต่างประเทศให้มาช่วยสร้างและพัฒนาเทคโนโลยีและนวัตกรรมให้กับประเทศ",
                    "id": "Y301030403",
                    "localid": 3,
                    "depth": 3,
                    "parentid": "Y3010304",
                    "shape": "",
                    "_checkenabled": true
                }]
            }, {
                "name": "5. การเสริมสร้างให้คนไทยมีสุขภาวะที่ดี",
                "id": "Y3010305",
                "localid": 5,
                "depth": 2,
                "parentid": "Y30103",
                "shape": "",
                "children": [{
                    "name": "5.1\tการสร้างความรอบรู้ด้านสุขภาวะ",
                    "id": "Y301030501",
                    "localid": 1,
                    "depth": 3,
                    "parentid": "Y3010305",
                    "shape": "",
                    "_checkenabled": true
                }, {
                    "name": "5.2\tการป้องกันและควบคุมปัจจัยเสี่ยงที่คุกคามสุขภาวะ",
                    "id": "Y301030502",
                    "localid": 2,
                    "depth": 3,
                    "parentid": "Y3010305",
                    "shape": "",
                    "_checkenabled": true
                }, {
                    "name": "5.3\tการสร้างสภาพแวดล้อมที่เอื้อต่อการมีสุขภาวะที่ดี",
                    "id": "Y301030503",
                    "localid": 3,
                    "depth": 3,
                    "parentid": "Y3010305",
                    "shape": "",
                    "_checkenabled": true
                }, {
                    "name": "5.4\tการพัฒนาระบบบริการสุขภาพที่ทันสมัยสนับสนุนการสร้างสุขภาวะที่ดี",
                    "id": "Y301030504",
                    "localid": 4,
                    "depth": 3,
                    "parentid": "Y3010305",
                    "shape": "",
                    "_checkenabled": true
                }, {
                    "name": "5.5\tการส่งเสริมให้ชุมชนเป็นฐานในการสร้างสุขภาวะที่ดีในทุกพื้นที่",
                    "id": "Y301030505",
                    "localid": 5,
                    "depth": 3,
                    "parentid": "Y3010305",
                    "shape": "",
                    "_checkenabled": true
                }]
            }, {
                "name": "6. การสร้างสภาพแวดล้อมที่เอื้อต่อการพัฒนาและเสริมสร้างศักยภาพทรัพยากรมนุษย์",
                "id": "Y3010306",
                "localid": 6,
                "depth": 2,
                "parentid": "Y30103",
                "shape": "",
                "children": [{
                    "name": "6.1\tการสร้างความอยู่ดีมีสุขของครอบครัวไทย",
                    "id": "Y301030601",
                    "localid": 1,
                    "depth": 3,
                    "parentid": "Y3010306",
                    "shape": "",
                    "_checkenabled": true
                }, {
                    "name": "6.2\tการส่งเสริมบทบาทการมีส่วนร่วมของภาครัฐ ภาคเอกชน องค์กรปกครองส่วนท้องถิ่น ครอบครัวและชุมชนในการพัฒนาทรัพยากรมนุษย์",
                    "id": "Y301030602",
                    "localid": 2,
                    "depth": 3,
                    "parentid": "Y3010306",
                    "shape": "",
                    "_checkenabled": true
                }, {
                    "name": "6.3\tการปลูกฝังและพัฒนาทักษะนอกห้องเรียน",
                    "id": "Y301030603",
                    "localid": 3,
                    "depth": 3,
                    "parentid": "Y3010306",
                    "shape": "",
                    "_checkenabled": true
                }, {
                    "name": "6.4\tการพัฒนาระบบฐานข้อมูลเพื่อการพัฒนาทรัพยากรมนุษย์",
                    "id": "Y301030604",
                    "localid": 4,
                    "depth": 3,
                    "parentid": "Y3010306",
                    "shape": "",
                    "_checkenabled": true
                }]
            }, {
                "name": "7. การเสริมสร้างศักยภาพการกีฬาในการสร้างคุณค่าทางสังคมและพัฒนาประเทศ",
                "id": "Y3010307",
                "localid": 7,
                "depth": 2,
                "parentid": "Y30103",
                "shape": "",
                "children": [{
                    "name": "7.1\tการส่งเสริมการออกกำลังกาย และกีฬาขั้นพื้นฐานให้กลายเป็นวิถีชีวิต",
                    "id": "Y301030701",
                    "localid": 1,
                    "depth": 3,
                    "parentid": "Y3010307",
                    "shape": "",
                    "_checkenabled": true
                }, {
                    "name": "7.2\tการส่งเสริมให้ประชาชนมีส่วนร่วมในกิจกรรมออกกำลังกาย กีฬาและนันทนาการ",
                    "id": "Y301030702",
                    "localid": 2,
                    "depth": 3,
                    "parentid": "Y3010307",
                    "shape": "",
                    "_checkenabled": true
                }, {
                    "name": "7.3\tการส่งเสริมการกีฬาเพื่อความเป็นเลิศและต่อยอดสู่ระดับอาชีพ",
                    "id": "Y301030703",
                    "localid": 3,
                    "depth": 3,
                    "parentid": "Y3010307",
                    "shape": "",
                    "_checkenabled": true
                }, {
                    "name": "7.4\tการพัฒนาบุคลากรด้านการกีฬาและนันทนาการเพื่อรองรับการเติบโตของอุตสาหกรรมกีฬา",
                    "id": "Y301030704",
                    "localid": 4,
                    "depth": 3,
                    "parentid": "Y3010307",
                    "shape": "",
                    "_checkenabled": true
                }]
            }]
        }]
    },
    {
      "name": "ยุทธศาสตร์ชาติด้านการสร้างโอกาสและความเสมอภาคทางสังคม",
      "id": "Y401",
      "localid": 1,
      "depth": 0,
      "shape": "",
      "children": [
        {
          "name": "เป้าหมาย",
          "id": "Y40101",
          "localid": 1,
          "depth": 1,
          "parentid": "Y401",
          "shape": "",
          "children": [
            {
              "name": "1. สร้างความเป็นธรรม และลดความเหลื่อมล้ำในทุกมิติ",
              "id": "Y4010101",
              "localid": 1,
              "depth": 2,
              "parentid": "Y40101",
              "shape": "",
              "_checkenabled": true,
              "kpi_id": "Y40102"
            },
            {
              "name": "2. กระจายศูนย์กลางความเจริญทางเศรษฐกิจและสังคม เพิ่มโอกาสให้ทุกภาคส่วนเข้ามาเป็นกำลังของการพัฒนาประเทศในทุกระดับ",
              "id": "Y4010102",
              "localid": 2,
              "depth": 2,
              "parentid": "Y40101",
              "shape": "",
              "_checkenabled": true,
              "kpi_id": "Y40102"
            },
            {
              "name": "3. เพิ่มขีดความสามารถของชุมชนท้องถิ่นในการพัฒนา การพึ่งตนเองและการจัดการตนเองเพื่อสร้างสังคมคุณภาพ",
              "id": "Y4010103",
              "localid": 3,
              "depth": 2,
              "parentid": "Y40101",
              "shape": "",
              "_checkenabled": true,
              "kpi_id": "Y40102"
            }
          ]
        },
        {
          "name": "ประเด็น",
          "id": "Y40103",
          "localid": 3,
          "depth": 1,
          "parentid": "Y401",
          "shape": "",
          "children": [
            {
              "name": "1. การลดความเหลื่อมล้ำ สร้างความเป็นธรรมในทุกมิติ",
              "id": "Y4010301",
              "localid": 1,
              "depth": 2,
              "parentid": "Y40103",
              "shape": "",
              "children": [
                {
                  "name": "1.1 ปรับโครงสร้างเศรษฐกิจฐานราก",
                  "id": "Y401030101",
                  "localid": 1,
                  "depth": 3,
                  "parentid": "Y4010301",
                  "shape": "",
                  "_checkenabled": true
                },
                {
                  "name": "1.2 ปฏิรูประบบภาษีและการคุ้มครองผู้บริโภค",
                  "id": "Y401030102",
                  "localid": 2,
                  "depth": 3,
                  "parentid": "Y4010301",
                  "shape": "",
                  "_checkenabled": true
                },
                {
                  "name": "1.3 กระจายการถือครองที่ดินและการเข้าถึงทรัพยากร",
                  "id": "Y401030103",
                  "localid": 3,
                  "depth": 3,
                  "parentid": "Y4010301",
                  "shape": "",
                  "_checkenabled": true
                },
                {
                  "name": "1.4 เพิ่มผลิตภาพและคุ้มครองแรงงานไทย ให้เป็นแรงงานฝีมือที่มีคุณภาพและความริเริ่มสร้างสรรค์ มีความปลอดภัยในการทำงาน",
                  "id": "Y401030104",
                  "localid": 4,
                  "depth": 3,
                  "parentid": "Y4010301",
                  "shape": "",
                  "_checkenabled": true
                },
                {
                  "name": "1.5 สร้างหลักประกันทางสังคมที่ครอบคลุมและเหมาะสมกับคนทุกช่วงวัย ทุกเพศภาวะและทุกกลุ่ม",
                  "id": "Y401030105",
                  "localid": 5,
                  "depth": 3,
                  "parentid": "Y4010301",
                  "shape": "",
                  "_checkenabled": true
                },
                {
                  "name": "1.6 ลงทุนทางสังคมแบบมุ่งเป้าเพื่อช่วยเหลือกลุ่มคนยากจนและกลุ่มผู้ด้อยโอกาสโดยตรง",
                  "id": "Y401030106",
                  "localid": 6,
                  "depth": 3,
                  "parentid": "Y4010301",
                  "shape": "",
                  "_checkenabled": true
                },
                {
                  "name": "1.7 สร้างความเป็นธรรมในการเข้าถึงบริการสาธารณสุข และการศึกษา โดยเฉพาะสำหรับผู้มีรายได้น้อยและกลุ่มผู้ด้อยโอกาส",
                  "id": "Y401030107",
                  "localid": 7,
                  "depth": 3,
                  "parentid": "Y4010301",
                  "shape": "",
                  "_checkenabled": true
                },
                {
                  "name": "1.8 สร้างความเป็นธรรมในการเข้าถึงกระบวนการยุติธรรมอย่างทั่วถึง",
                  "id": "Y401030108",
                  "localid": 8,
                  "depth": 3,
                  "parentid": "Y4010301",
                  "shape": "",
                  "_checkenabled": true
                }
              ]
            },
            {
              "name": "2. การกระจายศูนย์กลางความเจริญทางเศรษฐกิจ สังคม และเทคโนโลยี",
              "id": "Y4010302",
              "localid": 2,
              "depth": 2,
              "parentid": "Y40103",
              "shape": "",
              "children": [
                {
                  "name": "2.1 พัฒนาศูนย์กลางความเจริญทางเศรษฐกิจ สังคมและเทคโนโลยีในภูมิภาค",
                  "id": "Y401030201",
                  "localid": 1,
                  "depth": 3,
                  "parentid": "Y4010302",
                  "shape": "",
                  "_checkenabled": true
                },
                {
                  "name": "2.2 กำหนดแผนพัฒนาเศรษฐกิจและสังคมของแต่ละกลุ่มจังหวัดในมิติต่าง ๆ",
                  "id": "Y401030202",
                  "localid": 2,
                  "depth": 3,
                  "parentid": "Y4010302",
                  "shape": "",
                  "_checkenabled": true
                },
                {
                  "name": "2.3 จัดระบบเมืองที่เอื้อต่อการสร้างชีวิตและสังคมที่มีคุณภาพและปลอดภัย \nให้สามารถตอบสนองต่อสังคมสูงวัยและแนวโน้มของการขยายตัวของเมืองในอนาคต",
                  "id": "Y401030203",
                  "localid": 3,
                  "depth": 3,
                  "parentid": "Y4010302",
                  "shape": "",
                  "_checkenabled": true
                },
                {
                  "name": "2.4 ปรับโครงสร้างและแก้ไขกฎหมายระเบียบบริหารราชการแผ่นดิน เพื่อวางระบบและกลไกการบริหารงานในระดับภาค กลุ่มจังหวัด",
                  "id": "Y401030204",
                  "localid": 4,
                  "depth": 3,
                  "parentid": "Y4010302",
                  "shape": "",
                  "_checkenabled": true
                },
                {
                  "name": "2.5 สนับสนุนการพัฒนาพื้นที่บนฐานข้อมูลความรู้ เทคโนโลยีและนวัตกรรม",
                  "id": "Y401030205",
                  "localid": 5,
                  "depth": 3,
                  "parentid": "Y4010302",
                  "shape": "",
                  "_checkenabled": true
                },
                {
                  "name": "2.6 การพัฒนากำลังแรงงานในพื้นที่",
                  "id": "Y401030206",
                  "localid": 6,
                  "depth": 3,
                  "parentid": "Y4010302",
                  "shape": "",
                  "_checkenabled": true
                }
              ]
            },
            {
              "name": "3. การเสริมสร้างพลังทางสังคม",
              "id": "Y4010303",
              "localid": 3,
              "depth": 2,
              "parentid": "Y40103",
              "shape": "",
              "children": [
                {
                  "name": "3.1 สร้างสังคมเข้มแข็งที่แบ่งปัน ไม่ทอดทิ้งกัน และมีคุณธรรม",
                  "id": "Y401030301",
                  "localid": 1,
                  "depth": 3,
                  "parentid": "Y4010303",
                  "shape": "",
                  "_checkenabled": true
                },
                {
                  "name": "3.2 การรองรับสังคมสูงวัยอย่างมีคุณภาพ",
                  "id": "Y401030302",
                  "localid": 2,
                  "depth": 3,
                  "parentid": "Y4010303",
                  "shape": "",
                  "_checkenabled": true
                },
                {
                  "name": "3.3 สนับสนุนความร่วมมือระหว่างภาครัฐ ภาคเอกชน ภาควิชาการ ภาคประชาสังคมและภาคประชาชน",
                  "id": "Y401030303",
                  "localid": 3,
                  "depth": 3,
                  "parentid": "Y4010303",
                  "shape": "",
                  "_checkenabled": true
                },
                {
                  "name": "3.4 ส่งเสริมความเสมอภาคทางเพศและบทบาทของสตรีในการสร้างสรรค์สังคม",
                  "id": "Y401030304",
                  "localid": 4,
                  "depth": 3,
                  "parentid": "Y4010303",
                  "shape": "",
                  "_checkenabled": true
                },
                {
                  "name": "3.5 สนับสนุนการพัฒนาบนฐานทุนทางสังคมและวัฒนธรรม",
                  "id": "Y401030305",
                  "localid": 5,
                  "depth": 3,
                  "parentid": "Y4010303",
                  "shape": "",
                  "_checkenabled": true
                },
                {
                  "name": "3.6 สนับสนุนการพัฒนาเทคโนโลยีสารสนเทศและสื่อสร้างสรรค์ เพื่อรองรับสังคมยุคดิจิทัล",
                  "id": "Y401030306",
                  "localid": 6,
                  "depth": 3,
                  "parentid": "Y4010303",
                  "shape": "",
                  "_checkenabled": true
                }
              ]
            },
            {
              "name": "4. การเพิ่มขีดความสามารถของชุมชนท้องถิ่นในการพัฒนา การพึ่งตนเองและการจัดการตนเอง",
              "id": "Y4010304",
              "localid": 4,
              "depth": 2,
              "parentid": "Y40103",
              "shape": "",
              "children": [
                {
                  "name": "4.1 ส่งเสริมการปรับพฤติกรรมในระดับครัวเรือน ให้มีขีดความสามารถในการจัดการวางแผนชีวิต สุขภาพ ครอบครัว การเงินและอาชีพ",
                  "id": "Y401030401",
                  "localid": 1,
                  "depth": 3,
                  "parentid": "Y4010304",
                  "shape": "",
                  "_checkenabled": true
                },
                {
                  "name": "4.2 เสริมสร้างศักยภาพของชุมชนในการพึ่งตนเองและการพึ่งพากันเอง",
                  "id": "Y401030402",
                  "localid": 2,
                  "depth": 3,
                  "parentid": "Y4010304",
                  "shape": "",
                  "_checkenabled": true
                },
                {
                  "name": "4.3 สร้างการมีส่วนร่วมของภาคส่วนต่าง ๆ เพื่อสร้างประชาธิปไตยชุมชน",
                  "id": "Y401030403",
                  "localid": 3,
                  "depth": 3,
                  "parentid": "Y4010304",
                  "shape": "",
                  "_checkenabled": true
                },
                {
                  "name": "4.4 สร้างภูมิคุ้มกันทางปัญญาให้กับชุมชน",
                  "id": "Y401030404",
                  "localid": 4,
                  "depth": 3,
                  "parentid": "Y4010304",
                  "shape": "",
                  "_checkenabled": true
                }
              ]
            }
          ]
        }
      ]
    },
    {
      "name": "ยุทธศาสตร์ชาติด้านการสร้างการเติบโตบนคุณภาพชีวิตที่เป็นมิตรต่อสิ่งแวดล้อม",
      "id": "Y501",
      "localid": 1,
      "depth": 0,
      "shape": "",
      "children": [
        {
          "name": "เป้าหมาย",
          "id": "Y50101",
          "localid": 1,
          "depth": 1,
          "parentid": "Y501",
          "shape": "",
          "children": [
            {
              "name": "1. อนุรักษ์และรักษาทรัพยากรธรรมชาติ  สิ่งแวดล้อม และวัฒนธรรม ให้คนรุ่นต่อไปได้ใช้อย่างยั่งยืน มีสมดุล",
              "id": "Y5010101",
              "localid": 1,
              "depth": 2,
              "parentid": "Y50101",
              "shape": "",
              "_checkenabled": true,
              "kpi_id": "Y50102"
            },
            {
              "name": "2. ฟื้นฟูและสร้างใหม่ฐานทรัพยากรธรรมชาติและสิ่งแวดล้อม เพื่อลดผลกระทบทางลบจากการพัฒนาสังคมเศรษฐกิจของประเทศ",
              "id": "Y5010102",
              "localid": 2,
              "depth": 2,
              "parentid": "Y50101",
              "shape": "",
              "_checkenabled": true,
              "kpi_id": "Y50102"
            },
            {
              "name": "3. ใช้ประโยชน์และสร้างการเติบโต บนฐานทรัพยากรธรรมชาติและสิ่งแวดล้อมให้สมดุลภายในขีดความสามารถของระบบนิเวศ",
              "id": "Y5010103",
              "localid": 3,
              "depth": 2,
              "parentid": "Y50101",
              "shape": "",
              "_checkenabled": true,
              "kpi_id": "Y50102"
            },
            {
              "name": "4. ยกระดับกระบวนทัศน์ เพื่อกำหนดอนาคตประเทศด้านทรัพยากรธรรมชาติสิ่งแวดล้อม และวัฒนธรรม บนหลักของการมีส่วนร่วม และธรรมาภิบาล",
              "id": "Y5010104",
              "localid": 4,
              "depth": 2,
              "parentid": "Y50101",
              "shape": "",
              "_checkenabled": true,
              "kpi_id": "Y50102"
            }
          ]
        },
        {
          "name": "ประเด็น",
          "id": "Y50103",
          "localid": 3,
          "depth": 1,
          "parentid": "Y501",
          "shape": "",
          "children": [
            {
              "name": "1. สร้างการเติบโตอย่างยั่งยืนบนสังคมเศรษฐกิจสีเขียว",
              "id": "Y5010301",
              "localid": 1,
              "depth": 2,
              "parentid": "Y50103",
              "shape": "",
              "children": [
                {
                  "name": "1. เพิ่มมูลค่าของเศรษฐกิจฐานชีวภาพให้สอดคล้องกับยุทธศาสตร์ด้านการสร้างความสามารถในการแข่งขัน",
                  "id": "Y501030101",
                  "localid": 1,
                  "depth": 3,
                  "parentid": "Y5010301",
                  "shape": "",
                  "_checkenabled": true
                },
                {
                  "name": "2. อนุรักษ์และฟื้นฟูความหลากหลายทางชีวภาพในและนอกถิ่นกำเนิด",
                  "id": "Y501030102",
                  "localid": 2,
                  "depth": 3,
                  "parentid": "Y5010301",
                  "shape": "",
                  "_checkenabled": true
                },
                {
                  "name": "3. อนุรักษ์และฟื้นฟูแม่น้ำลำคลองและแหล่งน้ำธรรมชาติทั่วประเทศ",
                  "id": "Y501030103",
                  "localid": 3,
                  "depth": 3,
                  "parentid": "Y5010301",
                  "shape": "",
                  "_checkenabled": true
                },
                {
                  "name": "4. รักษาและเพิ่มพื้นที่สีเขียวที่เป็นมิตรกับสิ่งแวดล้อม",
                  "id": "Y501030104",
                  "localid": 4,
                  "depth": 3,
                  "parentid": "Y5010301",
                  "shape": "",
                  "_checkenabled": true
                },
                {
                  "name": "5. ส่งเสริมการบริโภคและการผลิตที่ยั่งยืน",
                  "id": "Y501030105",
                  "localid": 5,
                  "depth": 3,
                  "parentid": "Y5010301",
                  "shape": "",
                  "_checkenabled": true
                }
              ]
            },
            {
              "name": "2. สร้างการเติบโตอย่างยั่งยืนบนสังคมเศรษฐกิจภาคทะเล",
              "id": "Y5010302",
              "localid": 2,
              "depth": 2,
              "parentid": "Y50103",
              "shape": "",
              "children": [
                {
                  "name": "1. เพิ่มมูลค่าของเศรษฐกิจฐานชีวภาพทางทะเล",
                  "id": "Y501030201",
                  "localid": 1,
                  "depth": 3,
                  "parentid": "Y5010302",
                  "shape": "",
                  "_checkenabled": true
                },
                {
                  "name": "2. ปรับปรุง ฟื้นฟู และสร้างใหม่ทรัพยากรทางทะเลและชายฝั่งทั้งระบบ",
                  "id": "Y501030202",
                  "localid": 2,
                  "depth": 3,
                  "parentid": "Y5010302",
                  "shape": "",
                  "_checkenabled": true
                },
                {
                  "name": "3. ฟื้นฟูชายหาดที่เป็นแหล่งท่องเที่ยว ชายฝั่งทะเลได้รับการป้องกันและแก้ไขทั้งระบบ และมีนโยบายการจัดการชายฝั่งแบบบูรณาการอย่างเป็นองค์รวม",
                  "id": "Y501030203",
                  "localid": 3,
                  "depth": 3,
                  "parentid": "Y5010302",
                  "shape": "",
                  "_checkenabled": true
                },
                {
                  "name": "4. พัฒนาและเพิ่มสัดส่วนกิจกรรมทางทะเลที่เป็นมิตรต่อสิ่งแวดล้อม",
                  "id": "Y501030204",
                  "localid": 4,
                  "depth": 3,
                  "parentid": "Y5010302",
                  "shape": "",
                  "_checkenabled": true
                }
              ]
            },
            {
              "name": "3. สร้างการเติบโตอย่างยั่งยืนบนสังคมที่เป็นมิตรต่อสภาพภูมิอากาศ",
              "id": "Y5010303",
              "localid": 3,
              "depth": 2,
              "parentid": "Y50103",
              "shape": "",
              "children": [
                {
                  "name": "1. ลดการปล่อยก๊าซเรือนกระจก",
                  "id": "Y501030301",
                  "localid": 1,
                  "depth": 3,
                  "parentid": "Y5010303",
                  "shape": "",
                  "_checkenabled": true
                },
                {
                  "name": "2. มีการปรับตัวเพื่อลดความสูญเสียและเสียหายจากภัยธรรมชาติและผลกระทบที่เกี่ยวข้องกับการเปลี่ยนแปลงสภาพภูมิอากาศ",
                  "id": "Y501030302",
                  "localid": 2,
                  "depth": 3,
                  "parentid": "Y5010303",
                  "shape": "",
                  "_checkenabled": true
                },
                {
                  "name": "3. มุ่งเป้าสู่การลงทุนที่เป็นมิตรต่อสภาพภูมิอากาศในการพัฒนาโครงสร้างพื้นฐาน ของภาครัฐและภาคเอกชน",
                  "id": "Y501030303",
                  "localid": 3,
                  "depth": 3,
                  "parentid": "Y5010303",
                  "shape": "",
                  "_checkenabled": true
                },
                {
                  "name": "4. พัฒนาและสร้างระบบรับมือปรับตัวต่อโรคอุบัติใหม่และโรคอุบัติซ้ำที่เกิดจากการเปลี่ยนแปลงภูมิอากาศ",
                  "id": "Y501030304",
                  "localid": 4,
                  "depth": 3,
                  "parentid": "Y5010303",
                  "shape": "",
                  "_checkenabled": true
                }
              ]
            },
            {
              "name": "4. พัฒนาพื้นที่เมือง ชนบท เกษตรกรรมและอุตสาหกรรมเชิงนิเวศ มุ่งเน้นความเป็นเมืองที่เติบโตอย่างต่อเนื่อง",
              "id": "Y5010304",
              "localid": 4,
              "depth": 2,
              "parentid": "Y50103",
              "shape": "",
              "children": [
                {
                  "name": "1. จัดทำแผนผังภูมินิเวศเพื่อการพัฒนาเมือง ชนบท พื้นที่เกษตรกรรมและอุตสาหกรรม รวมถึงพื้นที่อนุรักษ์ตามศักยภาพและความเหมาะสมทางภูมินิเวศอย่างเป็นเอกภาพ",
                  "id": "Y501030401",
                  "localid": 1,
                  "depth": 3,
                  "parentid": "Y5010304",
                  "shape": "",
                  "_checkenabled": true
                },
                {
                  "name": "2. พัฒนาพื้นที่เมือง ชนบท เกษตรกรรม และ อุตสาหกรรมเชิงนิเวศ ที่มีการบริหารจัดการตามแผนผังภูมินิเวศอย่างยั่งยืน",
                  "id": "Y501030402",
                  "localid": 2,
                  "depth": 3,
                  "parentid": "Y5010304",
                  "shape": "",
                  "_checkenabled": true
                },
                {
                  "name": "3. จัดการมลพิษที่มีผลกระทบต่อสิ่งแวดล้อม และสารเคมีในภาคเกษตรทั้งระบบ ให้เป็นไปตามมาตรฐานสากลและค่ามาตรฐานสากล",
                  "id": "Y501030403",
                  "localid": 3,
                  "depth": 3,
                  "parentid": "Y5010304",
                  "shape": "",
                  "_checkenabled": true
                },
                {
                  "name": "4. สงวนรักษา อนุรักษ์ ฟื้นฟู และพัฒนาทรัพยากรธรรมชาติ มรดกทางสถาปัตยกรรมและศิลปวัฒนธรรม อัตลักษณ์ และวิถีชีวิตพื้นถิ่นบนฐานธรรมชาติ และฐานวัฒนธรรมอย่างยั่งยืน",
                  "id": "Y501030404",
                  "localid": 4,
                  "depth": 3,
                  "parentid": "Y5010304",
                  "shape": "",
                  "_checkenabled": true
                },
                {
                  "name": "5. พัฒนาเครือข่ายองค์กรพัฒนาเมืองและชุมชน รวมทั้งกลุ่มอาสาสมัคร ด้วยกลไกการมีส่วนร่วมของทุกภาคส่วนในท้องถิ่น",
                  "id": "Y501030405",
                  "localid": 5,
                  "depth": 3,
                  "parentid": "Y5010304",
                  "shape": "",
                  "_checkenabled": true
                }
              ]
            },
            {
              "name": "5. พัฒนาความมั่นคงน้ำ พลังงาน และเกษตรที่เป็นมิตรต่อสิ่งแวดล้อม",
              "id": "Y5010305",
              "localid": 5,
              "depth": 2,
              "parentid": "Y50103",
              "shape": "",
              "children": [
                {
                  "name": "1. พัฒนาการจัดการน้ำเชิงลุ่มน้ำทั้งระบบเพื่อเพิ่มความมั่นคงด้านน้ำของประเทศ",
                  "id": "Y501030501",
                  "localid": 1,
                  "depth": 3,
                  "parentid": "Y5010305",
                  "shape": "",
                  "_checkenabled": true
                },
                {
                  "name": "2. เพิ่มผลิตภาพของน้ำทั้งระบบ ในการใช้น้ำอย่างประหยัด รู้คุณค่า และสร้างมูลค่าเพิ่มจากการใช้น้ำ ให้ทัดเทียมกับระดับสากล",
                  "id": "Y501030502",
                  "localid": 2,
                  "depth": 3,
                  "parentid": "Y5010305",
                  "shape": "",
                  "_checkenabled": true
                },
                {
                  "name": "3. พัฒนาความมั่นคงพลังงานของประเทศ และส่งเสริมการใช้พลังงานที่เป็นมิตรต่อสิ่งแวดล้อม",
                  "id": "Y501030503",
                  "localid": 3,
                  "depth": 3,
                  "parentid": "Y5010305",
                  "shape": "",
                  "_checkenabled": true
                },
                {
                  "name": "4. เพิ่มประสิทธิภาพการใช้พลังงานโดยลดความเข้มข้นของการใช้พลังงาน",
                  "id": "Y501030504",
                  "localid": 4,
                  "depth": 3,
                  "parentid": "Y5010305",
                  "shape": "",
                  "_checkenabled": true
                },
                {
                  "name": "5. พัฒนาความมั่นคงด้านการเกษตรและอาหารของประเทศและชุมชน ในมิติปริมาณ คุณภาพ ราคาและการเข้าถึงอาหาร",
                  "id": "Y501030505",
                  "localid": 5,
                  "depth": 3,
                  "parentid": "Y5010305",
                  "shape": "",
                  "_checkenabled": true
                },
                {
                  "name": "6. เสริมสร้างระบบสาธารณสุขและอนามัยสิ่งแวดล้อม และยกระดับความสามารถในการป้องกันโรคอุบัติใหม่และอุบัติซ้ำ",
                  "id": "Y501030506",
                  "localid": 6,
                  "depth": 3,
                  "parentid": "Y5010305",
                  "shape": "",
                  "_checkenabled": true
                }
              ]
            },
            {
              "name": "6. ยกระดับกระบวนทัศน์เพื่อกำหนดอนาคตประเทศ",
              "id": "Y5010306",
              "localid": 6,
              "depth": 2,
              "parentid": "Y50103",
              "shape": "",
              "children": [
                {
                  "name": "1. ส่งเสริมคุณลักษณะและพฤติกรรมที่พึงประสงค์ด้านสิ่งแวดล้อมและคุณภาพชีวิตที่ดีของคนไทย",
                  "id": "Y501030601",
                  "localid": 1,
                  "depth": 3,
                  "parentid": "Y5010306",
                  "shape": "",
                  "_checkenabled": true
                },
                {
                  "name": "2. พัฒนาเครื่องมือ กลไกและระบบยุติธรรม และระบบประชาธิปไตยสิ่งแวดล้อม",
                  "id": "Y501030602",
                  "localid": 2,
                  "depth": 3,
                  "parentid": "Y5010306",
                  "shape": "",
                  "_checkenabled": true
                },
                {
                  "name": "3. จัดโครงสร้างเชิงสถาบันเพื่อจัดการประเด็นร่วม ด้านการบริหารจัดการทรัพยากรธรรมชาติและสิ่งแวดล้อมที่สำคัญ",
                  "id": "Y501030603",
                  "localid": 3,
                  "depth": 3,
                  "parentid": "Y5010306",
                  "shape": "",
                  "_checkenabled": true
                },
                {
                  "name": "4. พัฒนาและดำเนินโครงการที่ยกระดับกระบวนทัศน์ เพื่อกำหนดอนาคตประเทศ ด้านทรัพยากร ธรรมชาติ สิ่งแวดล้อมและวัฒนธรรม บนหลักของการมีส่วนร่วม และธรรมาภิบาล",
                  "id": "Y501030604",
                  "localid": 4,
                  "depth": 3,
                  "parentid": "Y5010306",
                  "shape": "",
                  "_checkenabled": true
                }
              ]
            }
          ]
        }
      ]
    },
    {
      "name": "ยุทธศาสตร์ชาติด้านการปรับสมดุลและพัฒนาระบบการบริหารจัดการภาครัฐ",
      "id": "Y601",
      "localid": 1,
      "depth": 0,
      "shape": "",
      "children": [
        {
          "name": "เป้าหมาย",
          "id": "Y60101",
          "localid": 1,
          "depth": 1,
          "parentid": "Y601",
          "shape": "",
          "children": [
            {
              "name": "1. ภาครัฐมีวัฒนธรรมการทำงานที่มุ่งผลสัมฤทธิ์และผลประโยชน์ส่วนรวม ตอบสนองความต้องการของประชาชนได้อย่างสะดวก รวดเร็ว โปร่งใส",
              "id": "Y6010101",
              "localid": 1,
              "depth": 2,
              "parentid": "Y60101",
              "shape": "",
              "_checkenabled": true,
              "kpi_id": "Y60102"
            },
            {
              "name": "2. ภาครัฐมีขนาดที่เล็กลง พร้อมปรับตัวให้ทันต่อการเปลี่ยนแปลง",
              "id": "Y6010102",
              "localid": 2,
              "depth": 2,
              "parentid": "Y60101",
              "shape": "",
              "_checkenabled": true,
              "kpi_id": "Y60102"
            },
            {
              "name": "3. ภาครัฐมีความโปร่งใส ปลอดการทุจริตและประพฤติมิชอบ",
              "id": "Y6010103",
              "localid": 3,
              "depth": 2,
              "parentid": "Y60101",
              "shape": "",
              "_checkenabled": true,
              "kpi_id": "Y60102"
            },
            {
              "name": "4. กระบวนการยุติธรรม เป็นไปเพื่อประโยชน์ต่อส่วนรวมของประเทศ",
              "id": "Y6010104",
              "localid": 4,
              "depth": 2,
              "parentid": "Y60101",
              "shape": "",
              "_checkenabled": true,
              "kpi_id": "Y60102"
            }
          ]
        },
        {
          "name": "ประเด็น",
          "id": "Y60103",
          "localid": 3,
          "depth": 1,
          "parentid": "Y601",
          "shape": "",
          "children": [
            {
              "name": "1. ภาครัฐที่ยึดประชาชนเป็นศูนย์กลาง ตอบสนองความต้องการ และให้บริการอย่างสะดวกรวดเร็ว โปร่งใส",
              "id": "Y6010301",
              "localid": 1,
              "depth": 2,
              "parentid": "Y60103",
              "shape": "",
              "children": [
                {
                  "name": "1.1 การให้บริการสาธารณะของภาครัฐได้มาตรฐานสากลและเป็นระดับแนวหน้าของภูมิภาค",
                  "id": "Y601030101",
                  "localid": 1,
                  "depth": 3,
                  "parentid": "Y6010301",
                  "shape": "",
                  "_checkenabled": true
                },
                {
                  "name": "1.2 ภาครัฐมีความเชื่อมโยงในการให้บริการสาธารณะต่าง ๆ ผ่านการนำเทคโนโลยีดิจิทัลมาประยุกต์ใช้",
                  "id": "Y601030102",
                  "localid": 2,
                  "depth": 3,
                  "parentid": "Y6010301",
                  "shape": "",
                  "_checkenabled": true
                }
              ]
            },
            {
              "name": "2. ภาครัฐบริหารงานแบบบูรณาการโดยมียุทธศาสตร์ชาติเป็นเป้าหมายและเชื่อมโยงการพัฒนาในทุกระดับ ทุกประเด็น ทุกภารกิจ และทุกพื้นที่",
              "id": "Y6010302",
              "localid": 2,
              "depth": 2,
              "parentid": "Y60103",
              "shape": "",
              "children": [
                {
                  "name": "2.1 ให้ยุทธศาสตร์ชาติเป็นกลไกขับเคลื่อนการพัฒนาประเทศ",
                  "id": "Y601030201",
                  "localid": 1,
                  "depth": 3,
                  "parentid": "Y6010302",
                  "shape": "",
                  "_checkenabled": true
                },
                {
                  "name": "2.2 ระบบการเงินการคลังประเทศสนับสนุนการขับเคลื่อนยุทธศาสตร์ชาติ",
                  "id": "Y601030202",
                  "localid": 2,
                  "depth": 3,
                  "parentid": "Y6010302",
                  "shape": "",
                  "_checkenabled": true
                },
                {
                  "name": "2.3 ระบบติดตามประเมินผลที่สะท้อนการบรรลุเป้าหมายยุทธศาสตร์ชาติในทุกระดับ",
                  "id": "Y601030203",
                  "localid": 3,
                  "depth": 3,
                  "parentid": "Y6010302",
                  "shape": "",
                  "_checkenabled": true
                }
              ]
            },
            {
              "name": "3. ภาครัฐมีขนาดเล็กลง เหมาะสมกับภารกิจ ส่งเสริมให้ประชาชนและทุกภาคส่วนมีส่วนร่วมในการพัฒนาประเทศ",
              "id": "Y6010303",
              "localid": 3,
              "depth": 2,
              "parentid": "Y60103",
              "shape": "",
              "children": [
                {
                  "name": "3.1 ภาครัฐมีขนาดที่เหมาะสม",
                  "id": "Y601030301",
                  "localid": 1,
                  "depth": 3,
                  "parentid": "Y6010303",
                  "shape": "",
                  "_checkenabled": true
                },
                {
                  "name": "3.2 ทุกภาคส่วนมีส่วนร่วมในการพัฒนาประเทศ",
                  "id": "Y601030302",
                  "localid": 2,
                  "depth": 3,
                  "parentid": "Y6010303",
                  "shape": "",
                  "_checkenabled": true
                },
                {
                  "name": "3.3 ส่งเสริมการกระจายอำนาจและสนับสนุนบทบาทชุมชนท้องถิ่นให้องค์กรปกครองส่วนท้องถิ่นเป็นหน่วยงานที่มีสมรรถนะสูง ตั้งอยู่บนหลักธรรมาภิ",
                  "id": "Y601030303",
                  "localid": 3,
                  "depth": 3,
                  "parentid": "Y6010303",
                  "shape": "",
                  "_checkenabled": true
                }
              ]
            },
            {
              "name": "4. ภาครัฐมีความทันสมัย",
              "id": "Y6010304",
              "localid": 4,
              "depth": 2,
              "parentid": "Y60103",
              "shape": "",
              "children": [
                {
                  "name": "4.1 องค์กรภาครัฐมีความยืดหยุ่นเหมาะสมกับบริบทการพัฒนาประเทศ",
                  "id": "Y601030401",
                  "localid": 1,
                  "depth": 3,
                  "parentid": "Y6010304",
                  "shape": "",
                  "_checkenabled": true
                },
                {
                  "name": "4.2 พัฒนาและปรับระบบวิธีการปฏิบัติราชการให้ทันสมัย",
                  "id": "Y601030402",
                  "localid": 2,
                  "depth": 3,
                  "parentid": "Y6010304",
                  "shape": "",
                  "_checkenabled": true
                }
              ]
            },
            {
              "name": "5. บุคลากรภาครัฐเป็นคนดีและเก่ง ยึดหลักคุณธรรม จริยธรรม มีจิตสำนึก มีความสามารถสูง มุ่งมั่น และเป็นมืออาชีพ",
              "id": "Y6010305",
              "localid": 5,
              "depth": 2,
              "parentid": "Y60103",
              "shape": "",
              "children": [
                {
                  "name": "5.1 ภาครัฐมีการบริหารกำลังคนที่มีความคล่องตัว ยึดระบบคุณธรรม",
                  "id": "Y601030501",
                  "localid": 1,
                  "depth": 3,
                  "parentid": "Y6010305",
                  "shape": "",
                  "_checkenabled": true
                },
                {
                  "name": "5.2 บุคลากรภาครัฐยึดค่านิยมในการทำงานเพื่อประชาชน มีคุณธรรม และมีการพัฒนาตามเส้นทางความก้าวหน้าในอาชีพ",
                  "id": "Y601030502",
                  "localid": 2,
                  "depth": 3,
                  "parentid": "Y6010305",
                  "shape": "",
                  "_checkenabled": true
                }
              ]
            },
            {
              "name": "6. ภาครัฐมีความโปร่งใส ปลอดการทุจริตและประพฤติมิชอบ",
              "id": "Y6010306",
              "localid": 6,
              "depth": 2,
              "parentid": "Y60103",
              "shape": "",
              "children": [
                {
                  "name": "6.1 ประชาชนและภาคีต่าง ๆ ในสังคมร่วมมือกันในการป้องกันการทุจริตและประพฤติมิชอบ",
                  "id": "Y601030601",
                  "localid": 1,
                  "depth": 3,
                  "parentid": "Y6010306",
                  "shape": "",
                  "_checkenabled": true
                },
                {
                  "name": "6.2 บุคลากรภาครัฐยึดมั่นในหลักคุณธรรม จริยธรรมและความซื่อสัตย์สุจริต",
                  "id": "Y601030602",
                  "localid": 2,
                  "depth": 3,
                  "parentid": "Y6010306",
                  "shape": "",
                  "_checkenabled": true
                },
                {
                  "name": "6.3 การปราบปรามการทุจริตประพฤติมิชอบมีประสิทธิภาพมีความเด็ดขาด เป็นธรรม และตรวจสอบได้",
                  "id": "Y601030603",
                  "localid": 3,
                  "depth": 3,
                  "parentid": "Y6010306",
                  "shape": "",
                  "_checkenabled": true
                },
                {
                  "name": "6.4 การบริหารจัดการการป้องกันและปราบปรามการทุจริตอย่างเป็นระบบแบบบูรณาการ",
                  "id": "Y601030604",
                  "localid": 4,
                  "depth": 3,
                  "parentid": "Y6010306",
                  "shape": "",
                  "_checkenabled": true
                }
              ]
            },
            {
              "name": "7. กฎหมายมีความสอดคล้องเหมาะสมกับบริบทต่าง ๆ และมีเท่าที่จำเป็น",
              "id": "Y6010307",
              "localid": 7,
              "depth": 2,
              "parentid": "Y60103",
              "shape": "",
              "children": [
                {
                  "name": "7.1 ภาครัฐจัดให้มีกฎหมายที่สอดคล้องและเหมาะสมกับบริบทต่าง ๆ ที่เปลี่ยนแปลง",
                  "id": "Y601030701",
                  "localid": 1,
                  "depth": 3,
                  "parentid": "Y6010307",
                  "shape": "",
                  "_checkenabled": true
                },
                {
                  "name": "7.2 มีกฎหมายเท่าที่จำเป็น",
                  "id": "Y601030702",
                  "localid": 2,
                  "depth": 3,
                  "parentid": "Y6010307",
                  "shape": "",
                  "_checkenabled": true
                },
                {
                  "name": "7.3 การบังคับใช้กฎหมายอย่างมีประสิทธิภาพ",
                  "id": "Y601030703",
                  "localid": 3,
                  "depth": 3,
                  "parentid": "Y6010307",
                  "shape": "",
                  "_checkenabled": true
                }
              ]
            },
            {
              "name": "8. กระบวนการยุติธรรมเคารพสิทธิมนุษยชนและปฏิบัติต่อประชาชนโดยเสมอภาค",
              "id": "Y6010308",
              "localid": 8,
              "depth": 2,
              "parentid": "Y60103",
              "shape": "",
              "children": [
                {
                  "name": "8.1 บุคลากรและหน่วยงานในกระบวนการยุติธรรมเคารพและยึดมั่นในหลักประชาธิปไตย เคารพศักดิ์ศรีความเป็นมนุษย์ที่พึงได้รับการปฏิบัติอย่างเท่าเทียม",
                  "id": "Y601030801",
                  "localid": 1,
                  "depth": 3,
                  "parentid": "Y6010308",
                  "shape": "",
                  "_checkenabled": true
                },
                {
                  "name": "8.2 ทุกหน่วยงานในกระบวนการยุติธรรม มีบทบาทเชิงรุกร่วมกันในทุกขั้นตอนของการค้นหาความจริง",
                  "id": "Y601030802",
                  "localid": 2,
                  "depth": 3,
                  "parentid": "Y6010308",
                  "shape": "",
                  "_checkenabled": true
                },
                {
                  "name": "8.3 หน่วยงานในกระบวนการยุติธรรมทั้งทางแพ่ง อาญา และปกครองมีเป้าหมายและยุทธศาสตร์ร่วมกัน",
                  "id": "Y601030803",
                  "localid": 3,
                  "depth": 3,
                  "parentid": "Y6010308",
                  "shape": "",
                  "_checkenabled": true
                },
                {
                  "name": "8.4 ส่งเสริมระบบยุติธรรมทางเลือก ระบบยุติธรรมชุมชน และการมีส่วนร่วมของประชาชนในกระบวนการยุติธรรม",
                  "id": "Y601030804",
                  "localid": 4,
                  "depth": 3,
                  "parentid": "Y6010308",
                  "shape": "",
                  "_checkenabled": true
                },
                {
                  "name": "8.5 พัฒนามาตรการอื่นแทนโทษจำคุก",
                  "id": "Y601030805",
                  "localid": 5,
                  "depth": 3,
                  "parentid": "Y6010308",
                  "shape": "",
                  "_checkenabled": true
                }
              ]
            }
          ]
        }
      ]
    }
  ]