{
    "H0102": {
        "H010201": "1) คุณภาพของกฎหมาย",
        "H010202": "2) จานวนของกฎหมายที่ล้าสมัย กฎหมายที่ก่อให้เกิดความเหลื่อมล้าและไม่เป็นธรรม และกฎหมายที่สร้างภาระแก่ประชาชนและเป็นอุปสรรคต่อการประกอบอาชีพ ที่มีการยกเลิกหรือแก้ไขปรับปรุง",
        "H010203": "3) ตัวชี้วัดจากการจัดอันดับในเรื่องต่าง ๆ ที่มีการนากฎหมายมาเป็นข้อพิจารณา",
        "H010204": "4) ความสะดวกการเข้าถึง รับรู้ และปฏิบัติตามกฎหมายของประชาชน"
    },
    "H01030102": {
        "H0103010201": "1) ร่างกฎหมายว่าด้วยหลักเกณฑ์การจัดทาร่างกฎหมายประกาศใช้บังคับเป็นกฎหมาย และมีการออก อนุบัญญัติรองรับการดาเนินการตามกฎหมายอย่างครบถ้วน",
        "H0103010202": "2) มีการกาหนดส่วนงานหรือหน่วยงานที่มีหน้าที่รับผิดชอบในการติดตาม ตรวจสอบ และประเมินผล การดาเนินการให้เป็นไปตามมาตรา 77 ของรัฐธรรมนูญแห่งราชอาณาจักรไทย รวมทั้งมีระบบสารสนเทศกลาง เพื่อเป็นเครื่องมือสาหรับรองรับการดาเนินการให้เกิดผลอย่างมีประสิทธิภาพ",
        "H0103010203": "3) ระดับความรับรู้และเข้าใจของบุคลากรหน่วยงานภาครัฐและประชาชนเกี่ยวกับการดาเนินการตามมาตรา 77 ของรัฐธรรมนูญแห่งราชอาณาจักรไทย โดยพิจารณาจากจานวนครั้งของการจัดสัมมนาและจานวนผู้เข้าร่วมสัมมนา ตลอดจนจานวนครั้งของการจัดหลักสูตรอบรมและจานวนผู้ผ่านหลักสูตรอบรม",
        "H0103010204": "4) ระดับหรือจานวนของการมีส่วนร่วมของประชาชนและผู้มีส่วนเกี่ยวข้องในการแสดงความคิดเห็นต่อ ร่างกฎหมาย หรือการดาเนินการอื่นใดตามมาตรา 77 ของรัฐธรรมนูญแห่งราชอาณาจักรไทย",
        "H0103010205": "5) จานวนของกฎหมายที่มีการนามาทบทวนหรือปรับปรุงแก้ไขให้สอดคล้องกับหลักการตามมาตรา 77 ของรัฐธรรมนูญแห่งราชอาณาจักรไทย"
    },
    "H0103010301010101": {
        "H010301030101010101": "ร่างกฎหมายตามข้อ 1.1 ประกาศใช้บังคับเป็นกฎหมาย"
    },
    "H0103010301010202": {
        "H010301030101020201": "ออกอนุบัญญัติครบถ้วนตามที่กฎหมายตามข้อ 1.1 กำหนด"
    },
    "H0103010301010302": {
        "H010301030101030201": "(1) จำนวนครั้งของการจัดสัมมนา และผู้เข้าร่วมสัมมนา\n(2) จำนวนครั้งของหลักสูตรที่จัดอบรม และจำนวนผู้ผ่านการอบรม"
    },
    "H01030103020101010102": {
        "H0103010302010101010201": "มีการกำหนดส่วนงานที่มีหน้าที่รับผิดชอบและมีบทบาทที่ชัดเจน"
    },
    "H01030103020101010201": {
        "H0103010302010101020101": "มีการจัดตั้งหน่วยงานเพื่อดำเนินการในระยะยาว ทั้งนี้ ให้มีการประเมินความจำเป็นของรูปแบบการดำเนินการที่เหมาะสมในระยะยาวต่อไป"
    },
    "H0103010302010202": {
        "H010301030201020201": "จัดทำระบบแล้วเสร็จ และสามารถรองรับการใช้งานเพื่อดำเนินการตามกฎหมายในข้อ 1.1 ได้"
    },
    "H0103010303010102": {
        "H010301030301010201": "จำนวนครั้ง และจำนวนหัวข้อของการจัดสัมมนา"
    },
    "H0103010303010202": {
        "H010301030301020201": "มีการเสนอเกณฑ์การพิจารณาในเรื่องดังกล่าว ครบถ้วนตามที่กำหนด\nในมาตรา 77 ของรัฐธรรมนูญฯ"
    },
    "H0103010303010302": {
        "H010301030301030201": "กฎหมายตามข้อ 3.3 ประกาศใช้บังคับเป็นกฎหมาย"
    },
    "H0103010303010402": {
        "H010301030301040201": "จำนวนครั้งของการสัมมนาและผู้เข้าร่วม และจำนวนครั้งของการจัดหลักสูตรอบรม และจำนวนผู้ผ่านการอบรม"
    },
    "H01030202": {
        "H0103020201": "1) ร่างกฎหมายที่กาหนดให้ดาเนินการประกาศใช้บังคับเป็นกฎหมาย",
        "H0103020202": "2) มีการจัดตั้งคณะกรรมการขับเคลื่อนการปฏิรูปกฎหมายในระยะเร่งด่วน และสานักงานขับเคลื่อนการปฏิรูปกฎหมายในระยะเร่งด่วน",
        "H0103020203": "3) มีการกาหนดกลไกในการทบทวนกฎหมายที่ล้าสมัยหรือสร้างภาระแก่ประชาชน",
        "H0103020204": "4) จานวนของกฎหมายและอนุบัญญัติที่เสนอแนะให้มีการยกเลิกหรือปรับปรุง",
        "H0103020205": "5) ระดับความรับรู้และความเข้าใจในการดาเนินการของผู้เกี่ยวข้อง โดยพิจารณาจากจานวนครั้งของการ จัดหลักสูตรอบรมการพิจารณายกเลิกกฎหมายที่ล้าสมัยหรือสร้างภาระแก่ประชาชนและจานวนผู้ผ่านการอบรม",
        "H0103020206": "6) การพัฒนาตัวชี้วัดทางด้านกฎหมายในมิติต่าง ๆ ที่นามาใช้ในการพิจารณาประเมินขีดความสามารถในการแข่งขันของประเทศ ตลอดจนผลการจัดอันดับความยาก-ง่ายในการประกอบธุรกิจ การติดต่อราชการ หรือการบริหารจัดการภาครัฐ"
    },
    "H0103020301010102": {
        "H010302030101010201": "มีการจัดตั้งคณะกรรมการฯ แล้วเสร็จ"
    },
    "H0103020301010202": {
        "H010302030101020201": "มีการจัดตั้งสำนักงานแล้วเสร็จ"
    },
    "H0103020301010302": {
        "H010302030101030201": "แต่งตั้งแล้วเสร็จ"
    },
    "H010302030101040102": {
        "H01030203010104010201": "จำนวนครั้งของการจัดหลักสูตรอบรม และจำนวน ผู้ผ่านการอบรม"
    },
    "H01030203020101010102": {
        "H0103020302010101010201": "จำนวนของกฎหมายที่เสนอให้ยกเลิกหรือปรับปรุงแก้ไข"
    },
    "H01030203020101010202": {
        "H0103020302010101020201": "จำนวนของกฎหมายที่เสนอให้ยกเลิกหรือปรับปรุงแก้ไข"
    },
    "H0103020303010102": {
        "H010302030301010201": "จำนวนข้อมูลที่รวบรวมและจำนวนข้อมูลที่มีการจัดเก็บไว้ในระบบ"
    },
    "H0103020303010202": {
        "H010302030301020201": "กำหนดเกณฑ์เพื่อใช้เป็นข้อพิจารณาแล้วเสร็จ"
    },
    "H01030203030103010102": {
        "H0103020303010301010201": "ปริมาณข้อมูลจากการรับฟังความคิดเห็น และจำนวนกฎหมายที่เสนอ\nให้มีการยกเลิกหรือแก้ไขปรับปรุง"
    },
    "H01030203030103010202": {
        "H0103020303010301020201": "จำนวนกฎหมายที่เสนอให้มีการยกเลิกหรือแก้ไขปรับปรุง"
    },
    "H01030203030104010102": {
        "H0103020303010401010201": "จำนวนของกฎหมายที่เสนอให้มีการยกเลิก หรือแก้ไขปรับปรุง"
    },
    "H01030203030104010202": {
        "H0103020303010401020201": "จำนวนของกฎหมายที่เสนอให้มีการยกเลิกหรือปรับปรุงแก้ไข"
    },
    "H01030302": {
        "H0103030201": "1) มีการจัดตั้งคณะกรรมการเพื่อเสนอมาตรการเพื่อลดความเหลื่อมล้าและสร้างความเป็นธรรมในสังคม",
        "H0103030202": "2) มีการปรับปรุงกฎหมายที่เกี่ยวข้องกับการประเมินภาษี รวมถึงมีระบบการแลกเปลี่ยนข้อมูลหน่วยงาน ที่รับผิดชอบในการจัดเก็บภาษี",
        "H0103030203": "3) หน่วยงานที่เกี่ยวข้องดาเนินการศึกษามาตรการทางกฎหมายตามที่กาหนด",
        "H0103030204": "4) ร่างกฎหมายตามที่ได้กาหนดไว้ในแผนฯ ประกาศใช้บังคับเป็นกฎหมาย"
    },
    "H0103030301010102": {
        "H010303030101010201": "มีการจัดตั้งคณะกรรมการดังกล่าว"
    },
    "H0103030301010202": {
        "H010303030101020201": "มีการจัดทำข้อเสนอแนะมาตรการเพื่อลดความเหลื่อมล้ำและสร้างความเป็นธรรมในสังคม หรือข้อเสนอแนะในการปรับปรุงและแก้ไขกฎหมายที่ไม่เป็นธรรมและก่อให้เกิดความเหลื่อมล้ำ"
    },
    "H0103030302010102": {
        "H010303030201010201": "มีการปรับปรุงกฎหมายที่เกี่ยวข้อง"
    },
    "H0103030302010202": {
        "H010303030201020201": "มีระบบการแลกเปลี่ยนข้อมูลระหว่างหน่วยงานจัดเก็บภาษีต่าง ๆ"
    },
    "H0103030303010102": {
        "H010303030301010201": "หน่วยงานที่เกี่ยวข้องได้ดำเนินการศึกษาและเสนอร่างกฎหมายหรือ\nแนวทางการดำเนินการที่สอดคล้องกับผลการศึกษาดังกล่าว"
    },
    "H0103030304010102": {
        "H010303030401010201": "หน่วยงานที่เกี่ยวข้องได้ดำเนินการศึกษาและเสนอร่างกฎหมายหรือ\nแนวทางการดำเนินการที่สอดคล้องกับผลการศึกษาดังกล่าว"
    },
    "H0103030305010102": {
        "H010303030501010201": "มีการดำเนินการรวบรวมข้อมูลภายในระยะเวลาที่กำหนด"
    },
    "H0103030305010202": {
        "H010303030501020201": "มีการประกาศใช้กฎหมายดังกล่าว"
    },
    "H0103030306010102": {
        "H010303030601010201": "มีการเสนอแนวทางการปรับปรุงกฎหมายดังกล่าวภายในระยะเวลาที่กำหนด"
    },
    "H0103030307010102": {
        "H010303030701010201": "มีการประกาศใช้กฎหมายดังกล่าว"
    },
    "H0103030308010102": {
        "H010303030801010201": "หน่วยงานที่เกี่ยวข้องเสนอรายงานผลการศึกษาภายในระยะเวลาที่กำหนด"
    },
    "H0103030308010202": {
        "H010303030801020201": "หน่วยงานที่เกี่ยวข้องเสนอรายงานผลการศึกษาภายในระยะเวลาที่กำหนด"
    },
    "H0103030308010302": {
        "H010303030801030201": "หน่วยงานที่เกี่ยวข้องเสนอรายงานผลการศึกษาภายในระยะเวลาที่กำหนด"
    },
    "H0103030308010401": {
        "H010303030801040101": "หน่วยงานที่เกี่ยวข้องเสนอรายงานผลการศึกษาภายในระยะเวลาที่กำหนด"
    },
    "H01030402": {
        "H0103040201": "1. มีการเสนอร่างกฎหมายเพื่อปรับปรุงประมวลรัษฎากรภายในระยะเวลาที่กาหนด",
        "H0103040202": "2. มีการจัดตั้งคณะกรรมการที่ปรึกษานโยบายภาษีอากรแห่งชาติ",
        "H0103040203": "3. มีการเสนอร่างกฎหมายเพื่อบูรณาการอานาจหน้าที่ในการส่งเสริมวิสาหกิจขนาดกลางและ ขนาดย่อมต่อคณะรัฐมนตรี",
        "H0103040204": "4. มีระบบฐานข้อมูลของผู้ประกอบธุรกิจ SMEs และมีการจัดอันดับความน่าเชื่อถือของ SMEs",
        "H0103040205": "5. มีการจัดตั้ง National Startup Center",
        "H0103040206": "6. มีการกาหนดหลักเกณฑ์การจัดสรรเงินสนับสนุนให้แก่ SMEs ตามข้อ 2.4 รวมถึงการกาหนดนโยบายหรือมาตรการตามข้อ 2.6 ข้อ 2.8 และข้อ 2.9",
        "H0103040207": "7. มีการเสนอผลการพิจารณาตามข้อ 2.5 ต่อคณะรัฐมนตรีภายในระยะเวลาที่กาหนด",
        "H0103040208": "8. มีการจัดฝึกอบรมความรู้ให้แก่ SMEs อย่างน้อย 1 ครั้งต่อเดือน และมีการจัดตั้งวิทยาลัยวิสาหกิจ ขนาดกลาง ขนาดย่อม และสตาร์ทอัพ",
        "H0103040209": "9. มีการเสนอร่างกฎหมายคุ้มครองพื้นที่เกษตรกรรมตามข้อ 3.1 ต่อคณะรัฐมนตรี รวมถึงแนวทาง การปรับปรุงกฎหมายว่าด้วยผังเมืองตามข้อ 3.2",
        "H0103040210": "10. มีการทบทวนกฎหมายตามข้อ 3.3",
        "H0103040211": "11. มีการเสนอร่างกฎหมายเพื่อปรับปรุงกฎหมายธุรกรรมอิเล็กทรอนิกส์และการคุ้มครองข้อมูลส่วนบุคคล",
        "H0103040212": "12. มีการดาเนินการศึกษาดังกล่าวภายในระยะเวลาที่กาหนด"
    },
    "H0103040301010102": {
        "H010304030101010201": "มีการเสนอร่างกฎหมายเพื่อปรับปรุงประมวลรัษฎากรภายในระยะเวลาที่กำหนด"
    },
    "H0103040301010202": {
        "H010304030101020201": "มีการจัดตั้งคณะกรรมการที่ปรึกษานโยบายภาษีอากรแห่งชาติ"
    },
    "H0103040302010102": {
        "H010304030201010201": "มีการเสนอร่างกฎหมายดังกล่าวภายในระยะเวลาที่กำหนด"
    },
    "H0103040302010202": {
        "H010304030201020201": "มีระบบฐานข้อมูลของผู้ประกอบธุรกิจ SMEs และมีการจัดอันดับความน่าเชื่อถือ"
    },
    "H0103040302010302": {
        "H010304030201030201": "มีการจัดตั้ง National Startup Center"
    },
    "H0103040302010402": {
        "H010304030201040201": "มีการกำหนดหลักเกณฑ์ดังกล่าว"
    },
    "H0103040302010502": {
        "H010304030201050201": "มีการเสนอผลการพิจารณาต่อคณะรัฐมนตรีภายในระยะเวลาที่กำหนด"
    },
    "H0103040302010602": {
        "H010304030201060201": "มีการพิจารณากำหนดหลักเกณฑ์ดังกล่าว"
    },
    "H0103040302010702": {
        "H010304030201070201": "(1) มีการจัดฝึกอบรมอย่างน้อย 1 ครั้งต่อเดือน\n(2) มีการจัดตั้งวิทยาลัยดังกล่าว"
    },
    "H0103040302010802": {
        "H010304030201080201": "มีการพิจารณาดำเนินการภายในระยะเวลาที่กำหนด"
    },
    "H0103040302010902": {
        "H010304030201090201": "มีการพิจารณาดำเนินการภายในระยะเวลาที่กำหนด"
    },
    "H0103040303010102": {
        "H010304030301010201": "มีการเสนอร่างกฎหมายดังกล่าวต่อคณะรัฐมนตรีภายในระยะเวลาที่กำหนด"
    },
    "H0103040303010202": {
        "H010304030301020201": "มีการเสนอแนวทางต่อคณะรัฐมนตรีภายในระยะเวลาที่กำหนด"
    },
    "H0103040303010302": {
        "H010304030301030201": "หน่วยงานที่เกี่ยวข้องทบทวนกฎหมายที่อยู่ภายใต้ความรับผิดชอบ"
    },
    "H0103040303010402": {
        "H010304030301040201": "มีการเสนอร่างกฎหมายดังกล่าวภายในระยะเวลาที่กำหนด"
    },
    "H0103040304010102": {
        "H010304030401010201": "หน่วยงานที่เกี่ยวข้องดำเนินการศึกษาภายในระยะเวลาที่กำหนด"
    },
    "H0103050201010102": {
        "H010305020101010201": "ร่างกฎหมายตามข้อ 1.1 ประกาศใช้บังคับเป็นกฎหมาย"
    },
    "H0103050201010202": {
        "H010305020101020201": "จำนวนครั้งของการจัดหลักสูตร และจำนวนผู้ผ่านการอบรม"
    },
    "H0103050201010302": {
        "H010305020101030201": "จัดทำหรือปรับปรุงคู่มือการร่างกฎหมายแล้วเสร็จ"
    },
    "H0103050201010402": {
        "H010305020101040201": "จัดทำหรือปรับปรุงคู่มือการเสนอร่างกฎหมายแล้วเสร็จ"
    },
    "H0103050201010502": {
        "H010305020101050201": "จำนวนร่างกฎหมายที่มีข้อมูลประกอบการพิจารณาที่ครบถ้วน"
    },
    "H0103050202010102": {
        "H010305020201010201": "การกำหนดส่วนงานที่มีหน้าที่รับผิดชอบและมีบทบาทที่ชัดเจน"
    },
    "H0103050202010202": {
        "H010305020201020201": "มีการกำหนด/ปรับปรุง มติคณะรัฐมนตรีในเรื่องดังกล่าว"
    },
    "H0103050202010302": {
        "H010305020201030201": "ระยะเวลาและคุณภาพของร่างกฎหมายที่รับผิดชอบ"
    },
    "H0103050202010402": {
        "H010305020201040201": "ประสิทธิภาพในการปฏิบัติงานของนักกฎหมายกฤษฎีกา"
    },
    "H0103050202010502": {
        "H010305020201050201": "และจำนวนกรรมการที่เข้าร่วมสัมมนา และจำนวนข้อเสนอจากการสัมมนา"
    },
    "H0103050202010602": {
        "H010305020201060201": "การปรับปรุงหลักเกณฑ์เกี่ยวกับกรรมการกฤษฎีกา และข้อเสนอเกี่ยวกับการเพิ่มประสิทธิภาพในการปฏิบัติหน้าที่"
    },
    "H0103050202010702": {
        "H010305020201070201": "มีการแก้ไขข้อบังคับการประชุม หรือมีการกำหนดหลักเกณฑ์ในการพิจารณากฎหายอย่างชัดเจน"
    },
    "H0103050203010102": {
        "H010305020301010201": "ร่างกฎหมายตามข้อ 3.1 ประกาศใช้เป็นกฎหมายภายในระยะเวลาที่กำหนด"
    },
    "H0103050203010202": {
        "H010305020301020201": "ผลการติดตามการดำเนินการงานของหน่วยงาน และวงรอบของการรายงานความคืบหน้าต่อคณะรัฐมนตรี"
    },
    "H0103050203010302": {
        "H010305020301030201": "ความครบถ้วนของข้อมูลที่รายงานต่อคณะรัฐมนตรี"
    },
    "H0103060201010102": {
        "H010306020101010201": "หน่วยงานของรัฐผู้รักษาการตามกฎหมาย จัดให้มีช่องทางให้ประชาชนทั่วไปหรือกลุ่มผู้มีส่วนได้เสียสามารถสะท้อนปัญหาที่เกิดขึ้นจากการบังคับใช้กฎหมาย"
    },
    "H0103060201010202": {
        "H010306020101020201": "ร้อยละของกฎหมาย ที่มีการจัดทำรายงานประมวลความคิดเห็น\nของประชาชนทั่วไปหรือกลุ่มผู้มีส่วนได้ส่วนเสีย และเสนอรัฐมนตรี\nผู้รักษาการตามกฎหมาย"
    },
    "H0103060202010102": {
        "H010306020201010201": "มีการกำหนดหลักเกณฑ์อันเป็นมาตรฐานขั้นต่ำของกระบวนการรับฟังความคิดเห็นหรือการมีส่วนร่วมของประชาชนในการจัดทำร่างกฎหมายโดยหน่วยงานของรัฐ"
    },
    "H0103060202010202": {
        "H010306020201020201": "ร้อยละของการจัดทำร่างกฎหมายที่มีการให้สรุปข้อมูลและเผยแพร่แก่ประชาชนอย่างครบถ้วน และสามารถเข้าใจได้ง่าย"
    },
    "H0103060202010302": {
        "H010306020201030201": "ร้อยละของการจัดทำร่างกฎหมายที่มีการดำเนินการตามที่กำหนด"
    },
    "H0103060202010402": {
        "H010306020201040201": "ร้อยละของร่างกฎหมายที่มีการแสดงข้อมูลตามที่กำหนดครบถ้วน"
    },
    "H0103060203010102": {
        "H010306020301010201": "การกำหนดผู้รับผิดชอบในการดำเนินการ และร้อยละของร่างกฎหมาย\nที่เปิดโอกาสให้มีส่วนร่วมหรือจัดให้มีการรับฟังความคิดเห็น"
    },
    "H0103060203010202": {
        "H010306020301020201": "จำนวนของร่างกฎหมายที่มีการสรุปผลการรับฟังความคิดเห็น"
    },
    "H0103060204010102": {
        "H010306020401010201": "กฎหมายว่าด้วยการเข้าชื่อเสนอกฎหมายประกาศใช้บังคับ"
    },
    "H0103060204010202": {
        "H010306020401020201": "มีการจัดตั้งหรือกำหนดส่วนงานที่รับผิดชอบในการดำเนินการ"
    },
    "H0103060205010102": {
        "H010306020501010201": "มีกลไกรองรับกระบวนการยุติธรรมชุมชน และกฎหมายว่าด้วยยุติธรรมชุมชนมีผลประกาศใช้บังคับ"
    },
    "H0103060205010202": {
        "H010306020501020201": "(1) จำนวนอาสาสมัครนักกฎหมายประจำท้องถิ่น\n(2) ความพึงพอใจของประชาชนในท้องถิ่นต่อบทบาทของอาสาสมัคร\nนักกฎหมายประจำท้องถิ่นในการให้ความช่วยเหลือประชาชนทางกฎหมาย"
    },
    "H0103060205010302": {
        "H010306020501030201": "ความพึงพอของประชาชนในชุมชนในการเข้าถึงหรือการได้รับความช่วยเหลือทางกฎหมาย"
    },
    "H01030603": {
        "H0103060301": "1) การจัดให้มีช่องทางในการสะท้อนปัญหาที่เกิดขึ้นจากการบังคับใช้กฎหมายสาหรับกลุ่มผู้มีส่วนได้ส่วนเสียและประชาชนทั่วไป",
        "H0103060302": "2) การกาหนดให้มีหลักเกณฑ์อันเป็นมาตรฐานขั้นต่าของกระบวนการรับฟังความคิดเห็นหรือการมีส่วนร่วมของประชาชนในการจัดทาและการเสนอกฎหมายโดยหน่วยงานของรัฐ",
        "H0103060303": "3) มีหน่วยงานรับผิดชอบในการจัดให้มีการรับฟังความคิดเห็นและวิเคราะห์ผลกระทบของร่างกฎหมาย ที่เสนอโดยสมาชิกสภาผู้แทนราษฎรและประชาชนผู้มีสิทธิเลือกตั้ง",
        "H0103060304": "4) มีการตรากฎหมายว่าด้วยการเข้าชื่อเสนอกฎหมาย เพื่อกาหนดขั้นตอนและวิธีการเข้าชื่อเสนอกฎหมายของประชาชนผู้มีสิทธิเลือกตั้ง ตลอดจนมีหน่วยงานของรัฐซึ่งทาหน้าที่โดยตรงในการให้ความช่วยเหลือประชาชน ในการจัดทาและเสนอร่างกฎหมาย",
        "H0103060305": "5) มีกลไกในการให้ความชวยเหลือทางกฎหมายแก่ประชาชนซึ่งสามารถเข้าถึงได้โดยง่ายในระดับพื้นที่"
    },
    "H01030702": {
        "H0103070201": "1) มีหลักเกณฑ์กาหนดรูปแบบ และวิธีการในการรวบรวมและจัดทาฐานข้อมูลของหน่วยงานของรัฐ",
        "H0103070202": "2) มีการเสนอแผนปฏิบัติการตามแผนปฏิรูปในการจัดทาฐานข้อมูลของกฎหมายภายในระยะเวลาที่กาหนด",
        "H0103070203": "3) ร่างกฎหมายว่าด้วยการจัดทาประมวลกฎหมายแบบต่อเนื่องเพื่อให้ประชาชนเข้าถึงได้โดยสะดวกประกาศใช้บังคับเป็นกฎหมาย",
        "H0103070204": "4) มีการแต่งตั้งคณะกรรมการดังกล่าวและมีการดาเนินการจัดทาประมวลกฎหมาย",
        "H0103070205": "5) มีมติคณะรัฐมนตรีกาหนดหลักเกณฑ์และวิธีการในการจัดทาคาอธิบายกฎหมาย",
        "H0103070206": "6) มีการจัดทาคาอธิบายกฎหมายที่มีผลใช้บังคับแล้วภายในระยะเวลาที่กาหนด",
        "H0103070207": "7) มีคาแปลกฎหมายในระดับพระราชบัญญัติ",
        "H0103070208": "8) มีมติคณะรัฐมนตรีกาหนดหลักเกณฑ์และวิธีการในการให้ความรู้ทางกฎหมายแก่ประชาชน",
        "H0103070209": "9) คณะรัฐมนตรีให้ความเห็นชอบแผนปฏิบัติการในการให้ความรู้ทางกฎหมายแก่ประชาชน",
        "H0103070210": "10) มีการจัดบุคลากรที่ทาหน้าที่ตอบปัญหาให้แก่ประชาชนผู้มาติดต่อ",
        "H0103070211": "11) มีการจัดอบรมความรู้เบื้องต้นเกี่ยวกับกฎหมายสองครั้งต่อปี",
        "H0103070212": "12) มีการจัดทาอินโฟกราฟิกหรือการทาคู่มือคาอธิบายสาระสาคัญของกฎหมายที่ครอบคลุมกฎหมายที่อยู่ในความรับผิดชอบของหน่วยงานผู้รักษาการตามกฎหมาย",
        "H0103070213": "13) ร่างกฎหมายว่าด้วยรัฐบาลดิจิทัลมีผลใช้บังคับเป็นกฎหมาย",
        "H0103070214": "14) มีมติคณะรัฐมนตรีกาหนดให้หน่วยงานที่ได้ดาเนินการรวบรวมกฎหมาย กฎ หนังสือเวียน แนวปฏิบัติ คาสั่ง และมติคณะรัฐมนตรี รวมถึงคาพิพากษา คาวินิจฉัย และความเห็นต่าง ๆ ที่ได้รวบรวมไว้ ส่งมารวบรวมจัดเก็บในระบบฐานข้อมูล",
        "H0103070215": "15) มีระบบอิเล็กทรอนิกส์เพื่อรองรับระบบฐานข้อมูลกลางทางกฎหมายของประเทศ โดยมีการดูแลรักษาระบบอย่างต่อเนื่อง",
        "H0103070216": "16) มีระบบฐานข้อมูลกลางทางกฎหมายของประเทศในรูปแบบของโปรแกรมประยุกต์"
    },
    "H0103070301010102": {
        "H010307030101010201": "มีหลักเกณฑ์ในการรวบรวมและจัดทำฐานข้อมูลของหน่วยงานของรัฐดังกล่าว"
    },
    "H0103070301010202": {
        "H010307030101020201": "มีการเสนอแผนปฏิบัติการตามแผนปฏิรูปภายในระยะเวลาที่กำหนดไว้"
    },
    "H0103070302010102": {
        "H010307030201010201": "มีการประกาศใช้กฎหมายดังกล่าว"
    },
    "H0103070302010202": {
        "H010307030201020201": "(1) มีการจัดตั้งคณะกรรมการหรือคณะอนุกรรมการดังกล่าว\n(2) มีการดำเนินการจัดทำประมวลกฎหมาย"
    },
    "H0103070303010102": {
        "H010307030301010201": "มีมติคณะรัฐมนตรีกำหนดหลักเกณฑ์และวิธีการในการจัดทำคำอธิบายกฎหมาย"
    },
    "H0103070303010202": {
        "H010307030301020201": "มีการจัดทำคำอธิบายกฎหมายที่มีผลใช้บังคับแล้วภายในระยะเวลาที่กำหนด"
    },
    "H0103070304010102": {
        "H010307030401010201": "มีคำแปลกฎหมายในระดับพระราชบัญญัติ"
    },
    "H0103070305010102": {
        "H010307030501010201": "มีมติคณะรัฐมนตรีกำหนดหลักเกณฑ์และวิธีการในการให้ความรู้ทางกฎหมายแก่ประชาชน"
    },
    "H0103070305010202": {
        "H010307030501020201": "(1) มีการจัดบุคลากรที่ทำหน้าที่ตอบปัญหาให้แก่ประชาชนผู้มาติดต่อ\n(2) มีการจัดอบรมดังกล่าวสองครั้งต่อปี\n(3)การจัดทำอินโฟกราฟิก (infographic) การทำคู่มือคำอธิบายสาระสำคัญของกฎหมาย ที่ครอบคลุมกฎหมายที่อยู่ในความรับผิดชอบของหน่วยงานผู้รักษาการตามกฎหมาย"
    },
    "H0103070306010102": {
        "H010307030601010201": "มีการประกาศใช้กฎหมายดังกล่าว"
    },
    "H0103070306010202": {
        "H010307030601020201": "มีมติคณะรัฐมนตรีกำหนดให้หน่วยงานของรัฐทุกหน่วยงานที่ได้ดำเนินการรวบรวมกฎหมาย กฎ หนังสือเวียน แนวปฏิบัติ คำสั่ง และมติคณะรัฐมนตรี รวมถึงคำพิพากษา คำวินิจฉัย และความเห็นต่าง ๆที่ได้รวบรวมไว้ ส่งมารวบรวมจัดเก็บในระบบฐานข้อมูล"
    },
    "H0103070306010302": {
        "H010307030601030201": "มีระบบอิเล็กทรอนิกส์ เพื่อรองรับระบบฐานข้อมูลกลางทางกฎหมายของประเทศ โดยมีการดูแลรักษาระบบอย่างต่อเนื่อง"
    },
    "H0103070306010402": {
        "H010307030601040201": "มีระบบฐานข้อมูลกลางทางกฎหมายของประเทศ ในรูปแบบโปรแกรมประยุกต์ (application)"
    },
    "H01030802": {
        "H0103080201": "1) การแต่งตั้งคณะกรรมการสภานิติศึกษาแห่งชาติ เพื่อจัดทานโยบายและกาหนดกรอบมาตรฐานการศึกษาวิชานิติศาสตร์",
        "H0103080202": "2) การกาหนดมาตรฐานหลักสูตรของผู้เข้ารับการศึกษาในระดับอุดมศึกษา",
        "H0103080203": "3) การจัดหลักสูตรฝึกอบรมให้แก่ผู้ประกอบวิชาชีพทั้งภาครัฐและเอกชน เพื่อพัฒนาบุคลากรทางกฎหมาย",
        "H0103080204": "4) ประชาชนมีความรู้ความเข้าใจกฎหมาย และมีความรู้ทางด้านกฎหมายผ่านทางระบบเทคโนโลยีสารสนเทศ"
    },
    "H0103080301010102": {
        "H010308030101010201": "มีนโยบายระดับประเทศเกี่ยวกับแผนและวิธีการสร้างนักกฎหมายที่มีความชัดเจนเพื่อตอบสนองต่อนโยบายของการพัฒนาประเทศให้สอดคล้องกับยุคสมัย"
    },
    "H0103080301010202": {
        "H010308030101020201": "มีคณะกรรมการสภานิติศึกษา"
    },
    "H0103080301010302": {
        "H010308030101030201": "ข้อเสนอเกี่ยวกับการพัฒนาหลักสูตรและมาตรฐานการศึกษากฎหมายในระดับปริญญาตรี"
    },
    "H0103080301010402": {
        "H010308030101040201": "แนวทางและแผนการแลกเปลี่ยนองค์ความรู้ระหว่างสถานศึกษาต่างๆ"
    },
    "H0103080301010502": {
        "H010308030101050201": "หลักเกณฑ์มาตรฐานของผู้เข้ารับการศึกษาในระดับอุดมศึกษา"
    },
    "H0103080302010102": {
        "H010308030201010201": "การจัดการฝึกอบรมให้แก่ผู้ประกอบวิชาชีพต่างๆ ทั้งภาครัฐและเอกชน โดยสอดแทรกหลักจริยธรรมของนักกฎหมาย"
    },
    "H0103080302010202": {
        "H010308030201020201": "หลักสูตรการศึกษากฎหมายต่อเนื่อง"
    },
    "H0103080302010302": {
        "H010308030201030201": "1) หลักสูตรอบรมให้ความรู้ทางด้านกฎหมายแก่ประชาชน \n2) การให้ความรู้ทางด้านกฎหมายแก่ประชาชนผ่านทางระบบเทคโนโลยีสารสนเทศ"
    },
    "H01030902": {
        "H0103090201": "1) จานวนระบบการให้บริการประชาชนผ่านช่องทางอิเล็กทรอนิกส์ของภาครัฐ (e-Service)",
        "H0103090202": "2) จานวนผู้เข้าใช้งานระบบการให้บริการประชาชนผ่านช่องทางอิเล็กทรอนิกส์ของภาครัฐ (e-Service)",
        "H0103090203": "3) อันดับการพัฒนาด้านรัฐบาลดิจิทัล ในการจัดลาดับของ UN e-Government rankings อยู่ในกลุ่มประเทศที่มีการพัฒนาสูงสุด 50 อันดับแรก",
        "H0103090204": "4) อันดับความยากง่ายในการดาเนินธุรกิจ (Ease of Doing Business Index) จัดทาโดยธนาคารโลก(World Bank) อยู่ในอันดับสองของอาเซียน",
        "H0103090205": "5) ระดับคะแนนของดัชนีการรับรู้การทุจริต (Corruption Perceptions Index)"
    },
    "H010309030102": {
        "H01030903010201": "มีการประกาศใช้กฎหมายว่าด้วยรัฐบาลดิจิทัล"
    },
    "H010309030202": {
        "H01030903020201": "จำนวนผู้เข้าใช้งานระบบการให้บริการประชาชนผ่านช่องทางอิเล็กทรอนิกส์ของภาครัฐ (e-Service) เพิ่มขึ้น"
    },
    "H010309030302": {
        "H01030903030201": "จำนวนผู้เข้าใช้งานระบบการให้บริการประชาชนผ่านช่องทางอิเล็กทรอนิกส์ของภาครัฐ (e-Service) เพิ่มขึ้น"
    },
    "H010309030402": {
        "H01030903040201": "มีการจัดตั้งศูนย์กลางการแลกเปลี่ยนทะเบียนข้อมูลดิจิทัลภาครัฐ"
    },
    "H010309030502": {
        "H01030903050201": "1) จำนวนระบบการให้บริการประชาชนผ่านช่องทางอิเล็กทรอนิกส์ของภาครัฐ (e-Service) เพิ่มขึ้น\n2) มีระบบการบริการแบบเบ็ดเสร็จ ณ จุดเดียวผ่านช่องทางอิเล็กทรอนิกส์  (one-stop service)"
    },
    "H010309030602": {
        "H01030903060201": "มีระบบความมั่นคงปลอดภัยและมาตรการปกป้องคุ้มครองข้อมูลและความเป็นส่วนตัวของประชาชน ของระบบการให้บริการประชาชนผ่านช่องทางอิเล็กทรอนิกส์ของภาครัฐ (e-Service)"
    },
    "H010309030702": {
        "H01030903070201": "ระบบยืนยันตัวบุคคลประเภทอื่น (Digital ID) และการตรวจสอบลายมือชื่ออิเล็กทรอนิกส์ มีค่าใช้จ่ายที่ถูกลง"
    },
    "H010309030802": {
        "H01030903080201": "จำนวนผู้เข้าใช้งานระบบสารสนเทศภาครัฐที่เพิ่มขึ้น"
    },
    "H010309030902": {
        "H01030903090201": "1) จำนวนช่องทางการประชาสัมพันธ์ผ่านสื่อต่างๆ\n2) จำนวนผู้เข้าร่วมการรับฟังความคิดเห็น และมีการนำผลการรับฟังความคิดเห็นมาพิจารณาและให้ความเห็นต่อผลการรับฟังความคิดเห็นดังกล่าว"
    },
    "H010309031002": {
        "H01030903100201": "มีระบบข้อมูลสารสนเทศเครือข่ายสำหรับองค์กร หรือหน่วยงานในการบังคับใช้กฎหมาย"
    },
    "H01031002": {
        "H0103100201": "1) ร่างกฎหมายว่าด้วยการเพิ่มประสิทธิภาพการบังคับใช้กฎหมาย และมีการออกอนุบัญญัติรองรับ การดาเนินการตามกฎหมายครบถ้วน",
        "H0103100202": "2) ส่วนงานหรือหน่วยงานที่มีหน้าที่รับผิดชอบ นาเทคโนโลยีมาใช้ในการดาเนินการเพื่อเพิ่มประสิทธิภาพ ในการบังคับใช้กฎหมาย",
        "H0103100203": "3) กฎหมายที่มีโทษทางอาญา ได้มีการปรับเปลี่ยนหรือแก้ไขจากมาตรการการลงโทษทางอาญาเป็นโทษปรับทางปกครอง",
        "H0103100204": "4) ข้อเสนอเกี่ยวกับการยกเลิกหรือปรับปรุงรางวัลนาจับที่ให้แก่เจ้าหน้าที่ของรัฐในกฎหมายต่าง ๆ เพื่อสร้างความเป็นธรรมและเป็นการปูองกันการทุจริตคอร์รัปชัน"
    },
    "H0103100301010102": {
        "H010310030101010201": "กฎหมายว่าด้วยการเพิ่มประสิทธิภาพการบังคับใช้กฎหมาย ประกาศใช้บังคับ"
    },
    "H0103100301010202": {
        "H010310030101020201": "กฎหมายลำดับรองเพื่อกำหนดรายละเอียดเกี่ยวกับหลักเกณฑ์และการปฏิบัติครบถ้วน"
    },
    "H0103100302010102": {
        "H010310030201010201": "ข้อเสนอที่เหมาะสมในการนำเครื่องมือหรือเทคโนโลยีมาใช้ เพื่อให้การบังคับใช้กฎหมายมีประสิทธิภาพ"
    },
    "H0103100302010202": {
        "H010310030201020201": "หน่วยงานที่เกี่ยวข้องมีการรายงานผลการประเมินประสิทธิภาพของการนำเทคโนโลยีมาใช้ในการบังคับใช้กฎหมาย"
    },
    "H0103100303010102": {
        "H010310030301010201": "รายงานข้อเสนอเกี่ยวกับบทบัญญัติที่กำหนดโทษทางอาญาที่มีการจำคุกและปรับ และสามารถเปรียบเทียบเพื่อให้คดียุติได้ โดยให้เปลี่ยนเป็นโทษปรับทางปกครอง"
    },
    "H0103100303010202": {
        "H010310030301020201": "กฎหมายเปลี่ยนโทษทางอาญาเป็นโทษปรับทางปกครอง ประกาศใช้บังคับ"
    },
    "H0103100304010102": {
        "H010310030401010201": "ข้อเสนอเกี่ยวกับการยกเลิกหรือปรับปรุงรางวัลนำจับที่ให้แก่เจ้าหน้าที่ของรัฐในกฎหมายต่าง ๆ"
    },
    "H0103100304010202": {
        "H010310030401020201": "รายงานการรับฟังความคิดเห็น"
    }
}