{
    "L010201010101": {
        "L01020101010101": "1. ประชากรอายุ 13 ปีขึ้นไปมีกิจกรรมการปฏิบัติตนที่สะท้อนการมีคุณธรรม\nจริยธรรมเพิ่มขึ้น",
        "L01020101010102": "2. คดีอาญามีสัดส่วนลดลง"
    },
    "L010201010201": {
        "L01020101020101": "1. เด็กมีพัฒนาการสมวัยไม่น้อยกว่าร้อยละ 85",
        "L01020101020102": "2. คะแนน IQ เฉลี่ยไม่ต่ำกว่าเกณฑ์มาตรฐาน",
        "L01020101020103": "3. เด็กร้อยละ 70 มีคะแนน EQ ไม่ต่ำกว่าเกณฑ์มาตรฐาน",
        "L01020101020104": "4. ผู้เรียนในระบบทวิภาคีเพิ่มขึ้นเฉลี่ยร้อยละ 30 ต่อปี",
        "L01020101020105": "5. ผู้ที่ได้รับการรับรองคุณวุฒิวิชาชีพและผู้ผ่านการทดสอบมาตรฐานฝีมือแรงงาน\nแห่งชาติเพิ่มขึ้น",
        "L01020101020106": "6. การออมส่วนบุคคลต่อรายได้พึงจับจ่ายใช้สอยเพิ่มขึ้น",
        "L01020101020107": "7. การมีงานทำของผู้สูงอายุ (อายุ 60 – 69 ปี) เพิ่มขึ้น"
    },
    "L010201010301": {
        "L01020101030101": "1. ผลคะแนนสอบ PISA ในแต่ละวิชาไม่ต่ำกว่า 500",
        "L01020101030102": "2. การใช้อินเทอร์เน็ตเพื่อการอ่านหาความรู้เพิ่มขึ้น",
        "L01020101030103": "3. การอ่านของคนไทยเพิ่มขึ้นเป็นร้อยละ 85",
        "L01020101030104": "4. แรงงานที่ขอเทียบโอนประสบการณ์และความรู้เพื่อขอรับวุฒิ ปวช. และ ปวส. เพิ่มขึ้นเฉลี่ยร้อยละ 20 ต่อปี"
    },
    "L010201010401": {
        "L01020101040101": "1. ประชากรอายุ 15-79 ปีมีภาวะน้ำหนักเกินลดลง",
        "L01020101040102": "2. การตายจากอุบัติเหตุทางถนนต่ำกว่า 18 คน ต่อประชากรแสนคน",
        "L01020101040103": "3. ประชาชนเล่นกีฬาและเข้าร่วมกิจกรรมนันทนาการเพิ่มขึ้น",
        "L01020101040104": "4. อัตราการฆ่าตัวตายสำเร็จต่อประชากรแสนคนลดลง",
        "L01020101040105": "5. การคลอดในผู้หญิงกลุ่มอายุ 15-19 ปี ลดลง",
        "L01020101040106": "6. รายจ่ายสุขภาพทั้งหมดไม่เกินร้อยละ 5 ของผลิตภัณฑ์มวลรวมในประเทศ",
        "L01020101040107": "7. ผู้สูงอายุที่อาศัยในบ้านที่มีสภาพแวดล้อมที่เหมาะสมเป็นร้อยละ 20"
    },
    "L010201010501": {
        "L01020101050101": "1. ดัชนีครอบครัวอบอุ่นอยู่ในระดับดีขึ้น",
        "L01020101050102": "2. ประชากรอายุ 13 ปีขึ้นไปมีการปฏิบัติตามหลักคำสอนทางศาสนาเพิ่มขึ้น",
        "L01020101050103": "3. ธุรกิจที่เป็นวิสาหกิจเพื่อสังคมเพิ่มขึ้น"
    },
    "L010202010101": {
        "L01020201010101": "1. รายได้เฉลี่ยต่อหัวของกลุ่มประชากรร้อยละ 40 ที่มีรายได้ต่ำสุด เพิ่มขึ้นไม่ต่ำกว่าร้อยละ 15 ต่อปี",
        "L01020201010102": "2.  ค่าสัมประสิทธิ์ความไม่เสมอภาค (Gini Coefficient) ด้านรายได้ลดลงเหลือ 0.41 เมื่อสิ้นสุดแผนพัฒนาฯ ฉบับที่ 12",
        "L01020201010103": "3. การถือครองสินทรัพย์ทางการเงินของกลุ่มประชากรร้อยละ 40 ที่มีรายได้ต่ำสุดเพิ่มขึ้น",
        "L01020201010104": "4. สัดส่วนประชากรที่อยู่ใต้เส้นความยากจนลดลงเหลือร้อยละ 6.5 ณ สิ้นแผนพัฒนาฯ",
        "L01020201010105": "5. สัดส่วนหนี้สินต่อรายได้ทั้งหมดของครัวเรือนของกลุ่มครัวเรือนที่ยากจนที่สุดลดลง"
    },
    "L010202010201": {
        "L01020201020101": "1.  อัตราการเข้าเรียนสุทธิ (ที่ปรับปรุง) ในระดับการศึกษาขั้นพื้นฐานเท่ากับร้อยละ 90 โดยไม่มีความแตกต่าระหว่างกลุ่มนักเรียน/นักศึกษาที่ครอบครัวมีฐานะทางเศรษฐกิจสังคมและระหว่างพื้นที่",
        "L01020201020102": "2. สัดส่วนนักเรียนที่มีผลสัมฤทธิ์ทางการศึกษาทุกระดับชั้นผ่านเกณฑ์คะแนนร้อยละ 50 มี จำนวนเพิ่มขึ้น และความแตกต่างของคะแนนผลสัมฤทธิ์ระหว่างพื้นที่ และภูมิภาคลดลง",
        "L01020201020103": "3. สัดส่วนแรงงานนอกระบบที่อยู่ภายใต้ประกันสังคม (ผู้ประกันตนตามมาตรา 40) และที่เข้าร่วมกองทุนการ ออมแห่งชาติต่อกำลังแรงงานเพิ่มขึ้น",
        "L01020201020104": "4. ความแตกต่างของสัดส่วนบุคลากรทางการแพทย์ต่อประชากรระหว่างพื้นที่ลดลง",
        "L01020201020105": "5. การเข้าถึงกระบวนการยุติธรรมของกลุ่มประชากรที่มีฐานะยากจนเพิ่มขึ้น"
    },
    "L010202010301": {
        "L01020201030101": "1. สัดส่วนครัวเรือนที่เข้าถึงแหล่งเงินทุนเพิ่มขึ้น",
        "L01020201030102": "2. ดัชนีชุมชนเข้มแข็งเพิ่มขึ้นในทุกภาค",
        "L01020201030103": "3. มูลค่าสินค้าชุมชนเพิ่มขึ้น"
    },
    "L010203010101": {
        "L01020301010101": "1. อัตราการขยายตัวทางเศรษฐกิจเฉลี่ยในช่วงแผนพัฒนาฯ ฉบับที่ 12 ไม่ต่ำกว่าร้อยละ 5",
        "L01020301010102": "2. รายได้ต่อหัวไม่ต่ำกว่า 8,200 ดอลลาร์ สรอ. ณ สิ้นแผนพัฒนาฯ ฉบับที่ 12 (ปี 2564) และรายได้สุทธิของรัฐบาลต่อมูลค่าผลิตภัณฑ์มวลรวมในประเทศไม่ต่ำกว่าร้อยละ 19.0"
    },
    "L010203010201": {
        "L01020301020101": "1. อัตราการขยายตัวของการลงทุนภาครัฐไม่ต่ำกว่าร้อยละ 10 ต่อปี",
        "L01020301020102": "2. อัตราการขยายตัวของการลงทุนภาคเอกชนไม่ต่ำกว่าร้อยละ 7.5 ต่อปี"
    },
    "L010203010301": {
        "L01020301030101": "1. อัตราการขยายตัวของมูลค่าการส่งออกเฉลี่ยไม่ต่ำกว่าร้อยละ 4.0"
    },
    "L010203010401": {
        "L01020301040101": "1. ผลิตภาพการผลิตของปัจจัยการผลิตไม่ต่ำกว่าร้อยละ 2.5 ต่อปี",
        "L01020301040102": "2. ผลิตภาพการผลิตของปัจจัยแรงงานไม่ต่ำกว่าร้อยละ 2.5 ต่อปี"
    },
    "L010203010501": {
        "L01020301050101": "1. อัตราเงินเฟ้อระยะปานกลางอยู่ที่ร้อยละ 2.5 ± 1.5",
        "L01020301050102": "2. หนี้สาธารณะคงค้าง ณ สิ้นแผนพัฒนาฯ ฉบับที่ 12 ไม่เกินร้อยละ 55 ของ ผลิตภัณฑ์มวลรวมในประเทศ",
        "L01020301050103": "3. ดุลบัญชีเดินสะพัดไม่เกินร้อยละ 2 ต่อผลิตภัณฑ์มวลรวมในประเทศ"
    },
    "L010203010601": {
        "L01020301060101": "1. การลงทุนจากความร่วมมือภาครัฐและภาคเอกชนในการพัฒนาโครงการโครงสร้างพื้นฐานเฉลี่ยปีละ 47,000 ล้านบาท"
    },
    "L010203010701": {
        "L01020301070101": "1. จำนวนการยื่นแบบเพื่อชำระภาษีประชาชนและผู้ประกอบการที่เข้าข่ายต้องเสียภาษีเพิ่มขึ้น"
    },
    "L010203010801": {
        "L01020301080101": "1. อันดับความสามารถในการแข่งขันทางเศรษฐกิจของประเทศโดย IMD เลื่อนขึ้นไปอยู่ในกลุ่ม 1 ใน 25 ของประเทศแรกที่ได้รับการจัดอันดับทั้งหมด"
    },
    "L010203010901": {
        "L01020301090101": "1. อัตราการขยายตัวของภาคเกษตรอุตสาหกรรม และบริการ (นอกเหนือจากบริการภาครัฐ) ขยายตัวเฉลี่ยไม่ต่ำกว่าร้อยละ 3, 4.5 และ 6 ต่อปี ตามลำดับ"
    },
    "L010203011001": {
        "L01020301100101": "1. รายได้เงินสดสุทธิทางการเกษตรเพิ่มขึ้นเป็น 59,460 บาทต่อครัวเรือน \nในปี 2564",
        "L01020301100102": "2. พื้นที่การทำเกษตรกรรมยั่งยืนเพิ่มขึ้นเป็น 5,000,000 ไร่ ในปี 2564"
    },
    "L010203011101": {
        "L01020301110101": "1. จำนวนพื้นที่ที่ได้รับการพัฒนาสู่เมืองอุตสาหกรรมนิเวศจำนวน 15 พื้นที่"
    },
    "L010203011201": {
        "L01020301120101": "1. รายได้จากการท่องเที่ยวไม่ต่ำกว่า 3 ล้านล้านบาท",
        "L01020301120102": "2. อันดับความสามารถในการแข่งขันด้านการท่องเที่ยว (The Travel & Tourism Competitiveness Index: TTCI) ไม่ต่ำกว่าอันดับที่ 30"
    },
    "L010203011301": {
        "L01020301130101": "1. สัดส่วนผลิตภัณฑ์มวลรวมในประเทศของวิสาหกิจขนาดกลางและขนาดย่อมต่อผลิตภัณฑ์มวลรวมในประเทศทั้งประเทศเพิ่มขึ้นเป็นไม่น้อยกว่าร้อยละ 50 เมื่อสิ้นสุดแผนพัฒนาฯ ฉบับที่ 12"
    },
    "L010203011401": {
        "L01020301140101": "1. อันดับขีดความสามารถในการแข่งขันในภาคการเงินปรับตัวดีขึ้น",
        "L01020301140102": "2. คะแนนทักษะทางการเงินของคนไทยเท่ากับคะแนนเฉลี่ยของโลก",
        "L01020301140103": "3. สัดส่วนการกู้เงินนอกระบบลดลง",
        "L01020301140104": "4. เพิ่มปริมาณการใช้บริการชำระเงินทางอิเล็กทรอนิกส์เป็น 200 ครั้ง/ปี/คน"
    },
    "L010204010101": {
        "L01020401010101": "1.  สัดส่วนพื้นที่ป่าไม้เป็นร้อยละ 40 ของพื้นที่ประเทศ แบ่งเป็นพื้นที่ป่าเพื่อการอนุรักษ์ ร้อยละ 25 และพื้นที่ป่าเศรษฐกิจ ร้อยละ 15 พื้นที่ป่าชายเลนเพิ่มจาก 1.53 ล้านไร่ เป็น 1.58 ล้านไร่ พื้นที่ปลูกและฟื้นฟูป่าต้นน้ำเพิ่มขึ้น",
        "L01020401010102": "2. จำนวนชนิดพันธุ์และประชากรของสิ่งมีชีวิตที่อยู่ในภาวะถูกคุกคาม หรือใกล้สูญพันธุ์",
        "L01020401010103": "3. แผนที่แนวเขตที่ดินของรัฐ (โครงการ One Map) ที่แล้วเสร็จมีการประกาศใช้ และ จำนวนพื้นที่จัดที่ดินทำกินให้ชุมชน"
    },
    "L010204010201": {
        "L01020401020101": "1. มีระบบประปาหมู่บ้านครบทุกหมู่บ้าน",
        "L01020401020102": "2. ลุ่มน้ำสำคัญของประเทศ 25 ลุ่มน้ำ มีแผนบริหารจัดการทรัพยากรน้ำอย่างสมดุล ระหว่างความต้องการใช้\nน้ำกับปริมาณน้ำต้นทุน และมีการแปลงไปสู่การปฏิบัติที่เป็นรูปธรรม",
        "L01020401020103": "3. ประสิทธิภาพการใช้น้ำในพื้นที่ชลประทานเพิ่มขึ้น",
        "L01020401020104": "4. ประสิทธิภาพการใช้น้ำทั้งภาคการผลิตและการบริโภคเพิ่มขึ้น",
        "L01020401020105": "5. พื้นที่และมูลค่าความเสียหายจากอุทกภัยและภัยแล้งมีแนวโน้มลดลง",
        "L01020401020106": "6. พื้นที่ชลประทานเพิ่มขึ้นปีละ 350,000 ไร่"
    },
    "L010204010301": {
        "L01020401030101": "1. สัดส่วนของขยะมูลฝอยชุมชนได้รับการจัดการอย่างถูกต้องและนำไปใช้ประโยชน์ไม่น้อยกว่าร้อยละ 75 สัดส่วนของเสียอันตรายชุมชนที่ได้รับการกำจัดอย่างถูกต้องไม่น้อยกว่าร้อยละ 30 และกากอุตสาหกรรมอันตรายทั้งหมดเข้าสู่ระบบการจัดการที่ถูกต้อง",
        "L01020401030102": "2. คุณภาพน้ำของแม่น้ำสายหลักที่อยู่ในเกณฑ์ดีเพิ่มขึ้น",
        "L01020401030103": "3. คุณภาพอากาศในพื้นที่วิกฤติหมอกควันได้รับการแก้ไขและมีค่าอยู่ในเกณฑ์มาตรฐาน"
    },
    "L010204010401": {
        "L01020401040101": "1. ปริมาณการปล่อยก๊าซเรือนกระจกในภาคพลังงานและคมนาคมขนส่งลดลงไม่น้อยกว่าร้อยละ 7 ของการปล่อยในกรณีปกติภายในปี 2563",
        "L01020401040102": "2. ต้นทุนการลดการปล่อยก๊าซเรือนกระจกต่อหน่วย (บาทต่อตันคาร์บอนไดออกไซด์ เทียบเท่า) มีแนวโน้มลดลง",
        "L01020401040103": "3. แผนปฏิบัติการการปรับตัวเพื่อรองรับการเปลี่ยนแปลงสภาพภูมิอากาศในรายสาขาที่จำเป็น เช่น การจัดการน้ำ เกษตร สาธารณสุข และป่าไม้",
        "L01020401040104": "4. การจัดตั้งกลไกภายในประเทศเพื่อสนับสนุนด้านการเงิน เทคโนโลยีและการเสริมสร้างศักยภาพ"
    },
    "L010204010501": {
        "L01020401050101": "1. ระบบพยากรณ์และเตือนภัยล่วงหน้าสำหรับภาคเกษตรและการจัดการภัยพิบัติ ทางธรรมชาติในพื้นที่เสี่ยงภัย",
        "L01020401050102": "2. สัดส่วนของพื้นที่เสี่ยงภัยที่ได้รับการจัดตั้งเครือข่ายเฝ้าระวังภัยธรรมชาติ",
        "L01020401050103": "3. จำนวนผู้เสียชีวิตและมูลค่าความเสียหายจากภัยธรรมชาติ ค่าใช้จ่ายในการชดเชยผู้ได้รับผลกระทบจากภัยพิบัติในพื้นที่เสี่ยงภัยซ้ำซากลดลง"
    },
    "L010205010101": {
        "L01020501010101": "1. จำนวนกิจกรรมเทิดพระเกียรติและเชิดชูสถาบันพระมหากษัตริย์เพิ่มขึ้น",
        "L01020501010102": "2. จำนวนกิจกรรมที่มีความเกี่ยวข้องกับโครงการพระราชดำริเพิ่มขึ้น"
    },
    "L010205010201": {
        "L01020501020101": "1. ดัชนีความไม่มีเสถียรภาพทางการเมืองลดลง (ดัชนีสันติภาพโลกของ The Institute for Economics and Peace: IEP)",
        "L01020501020102": "2. จำนวนผู้เสียชีวิตจากความขัดแย้งภายในประเทศลดลง (ดัชนีสันติภาพโลก)",
        "L01020501020103": "3. จำนวนกิจกรรมที่ประชาชนมีส่วนร่วมป้องกันแก้ไขปัญหาความมั่นคงเพิ่มขึ้น"
    },
    "L010205010301": {
        "L01020501030101": "1. มูลค่าความเสียหายและจำนวนการก่อเหตุร้ายที่มีมูลเหตุจากความไม่สงบลดลง",
        "L01020501030102": "2. รายได้ครัวเรือนเฉลี่ยต่อคนและจำนวนปีการศึกษาเฉลี่ยในพื้นที่ 3 จังหวัดชายแดนภาคใต้เพิ่มขึ้น",
        "L01020501030103": "3. จำนวนกิจกรรมสาธารณประโยชน์ที่ประชาชนทุกศาสนาร่วมดำเนินการเพิ่มขึ้น"
    },
    "L010205010401": {
        "L01020501040101": "1. ดัชนีความสัมพันธ์กับประเทศเพื่อนบ้านเพิ่มขึ้น (ดัชนีสันติภาพโลก)",
        "L01020501040102": "2. จำนวนคดีที่เกี่ยวข้องกับภัยคุกคามข้ามชาติลดลง",
        "L01020501040103": "3. จำนวนเหตุการณ์การกระทำผิดกฎหมายทางทะเลลดลง",
        "L01020501040104": "4. จำนวนดีที่เกี่ยวข้องกับยาเสพติดลดลง"
    },
    "L010205010501": {
        "L01020501050101": "1. ระยะเวลาในการระดมสรรพกำลังเมื่อเกิดภัยคุกคาม",
        "L01020501050102": "2. อันดับความเสี่ยงจากการก่อการร้ายต่ำกว่าอันดับที่ 20 ของโลก (ดัชนีความเสี่ยงของโลกของ WEF)",
        "L01020501050103": "3. อันดับความเสี่ยงจากการโจมตีด้านไซเบอร์/ต่ำกว่าอันดับที่ 10 ของโลก (ดัชนีความปลอดภัยไซเบอร์ของโลกของ International Telecommunication Union: ITU)"
    },
    "L010205010601": {
        "L01020501060101": "1. จำนวนแผนงานด้านความมั่นคงที่สอดคล้องกับนโยบายการพัฒนาเศรษฐกิจ สังคมทรัพยากรธรรมชาติและสิ่งแวดล้อมเพิ่มขึ้น"
    },
    "L010206010101": {
        "L01020601010101": "1. อันดับประสิทธิภาพภาครัฐ จัดทำโดยสถาบันการจัดการนานาชาติ อยู่ในอันดับสองของอาเซียน เมื่อสิ้นสุดแผนพัฒนาฯ ฉบับที่ 12",
        "L01020601010102": "2. อันดับความยากง่ายในการดำเนินธุรกิจ จัดทำโดยธนาคารโลก อยู่ในอันดับสองของอาเซียน เมื่อสิ้นสุดแผนพัฒนาฯ ฉบับที่ 12",
        "L01020601010103": "3. สัดส่วนค่าใช้จ่ายด้านบุคลากรของรัฐต่องบประมาณรายจ่ายประจำปีลดลง"
    },
    "L010206010201": {
        "L01020601020101": "1. สัดส่วนองค์กรปกครองส่วนท้องถิ่นในแต่ละประเภทที่ได้รับรางวัลการบริหารจัดการที่ดีต่อองค์กรปกครองส่วนท้องถิ่นทั้งหมดเพิ่มขึ้น",
        "L01020601020102": "2. ข้อร้องเรียนและคดีเกี่ยวกับการดำเนินงานขององค์กรปกครองส่วนท้องถิ่นลดลง"
    },
    "L010206010301": {
        "L01020601030101": "1. ระดับคะแนนของดัชนีการรับรู้การทุจริตสูงกว่าร้อยละ 50 เมื่อสิ้นสุดแผนพัฒนาฯ ฉบับที่ 12"
    },
    "L010206010401": {
        "L01020601040101": "1. จำนวนคดีที่รัฐดำเนินคดีกับผู้มิได้กระทำความผิดซึ่งต้องชดเชยความเสียหายลดลง"
    },
    "L010207010101": {
        "L01020701010101": "1. สัดส่วนการใช้พลังงานขั้นสุดท้ายต่อผลิตภัณฑ์มวลรวมในประเทศลดลงจาก 8.22 เป็น 7.70 พันตันเทียบเท่าน้ำมันดิบ/พันล้านบาท ในปี 2564",
        "L01020701010102": "2. สัดส่วนต้นทุนโลจิสติกส์ลดลงจากร้อยละ 14 เป็นร้อยละ 12 ของผลิตภัณฑ์มวลรวมในประเทศ โดยในส่วนของต้นทุนค่าขนส่งสินค้าต่ำกว่าร้อยละ 7 ของผลิตภัณฑ์มวลรวมในประเทศ ในปี 2564"
    },
    "L010207010201": {
        "L01020701020101": "1. สัดส่วนปริมาณการขนส่งสินค้าทางรางต่อปริมาณการขนส่งสินค้าทั้งหมดภายในประเทศ เพิ่มขึ้นจากร้อยละ 1.4 เป็นร้อยละ 4 และสัดส่วนปริมาณการขนส่งสินค้าทางน้ำต่อปริมาณการขนส่งสินค้าทั้งหมดภายในประเทศ เพิ่มขึ้นจากร้อยละ 12 เป็นร้อยละ 15 ในปี 2564",
        "L01020701020102": "2. สัดส่วนของผู้ใช้ระบบรถไฟฟ้าต่อปริมาณการเดินทางในเขตกรุงเทพมหานครและปริมณฑล จากร้อยละ 5 เป็นร้อยละ 15 ในปี 2564",
        "L01020701020103": "3. ความสามารถในการรองรับปริมาณผู้โดยสารโดยรวมของท่าอากาศยานในกรุงเทพมหานครและท่าอากาศยานในภูมิภาค เพิ่มขึ้นเป็น 120 และ 55 ล้านคนต่อปี ตามลำดับ ในปี2564"
    },
    "L010207010301": {
        "L01020701030101": "1. อันดับดัชนีความสามารถในการแข่งขันด้านโลจิสติกส์ และประสิทธิภาพการอำนวยความสะดวก\nทางการค้าดีขึ้น",
        "L01020701030102": "2. จำนวนธุรกรรมการให้บริการการนำเข้าและส่งออกด้วยระบบอิเล็กทรอนิกส์เป็นร้อยละ 100 ในปี 2564",
        "L01020701030103": "3. ปริมาณสินค้าที่ผ่านเข้า-ออก ณ ด่านการค้าชายแดนที่สำคัญเพิ่มขึ้นเฉลี่ยไม่น้อยกว่าร้อยละ 5 ต่อปี"
    },
    "L010207010401": {
        "L01020701040101": "1. สัดส่วนการใช้พลังงานทดแทนต่อปริมาณการใช้พลังงานขั้นสุดท้ายเพิ่มขึ้นจาก\nร้อยละ 12.94 เป็นร้อยละ 17.34 ในปี 2564",
        "L01020701040102": "2. สัดส่วนการใช้ก๊าซธรรมชาติในการผลิตไฟฟ้าลดลงจากร้อยละ 65 เป็นร้อยละ 47 ในปี 2564"
    },
    "L010207010501": {
        "L01020701050101": "1. อันดับความพร้อมใช้ของเทคโนโลยีสารสนเทศและการสื่อสาร (Network Readiness Index: NRI) ดีขึ้น",
        "L01020701050102": "2. จำนวนหมู่บ้านที่มีอินเทอร์เน็ตความเร็วสูงเข้าถึง เพิ่มขึ้นจากร้อยละ 30 เป็นมากกว่าร้อยละ 85 ในปี 2564",
        "L01020701050103": "3. จำนวนผู้ประกอบการธุรกิจดิจิทัลเพิ่มขึ้นไม่น้อยกว่า 1,000 ราย ในปี 2564",
        "L01020701050104": "4. จำนวนหน่วยงานภาครัฐมีระบบความมั่นคงปลอดภัยทางไซเบอร์เพิ่มขึ้นจากร้อยละ 47 เป็นมากกว่าร้อยละ 80 ในปี 2564"
    },
    "L010207010601": {
        "L01020701060101": "1. จำนวนครัวเรือนในเขตนครหลวงได้รับบริการน้ำประปาร้อยละ 100 ภายในปี 2561 และจำนวนครัวเรือนในเขตภูมิภาค/เทศบาลได้รับบริการน้ำประปาครอบคลุมมากกว่าร้อยละ 80\nในปี 2564",
        "L01020701060102": "2. จำนวนหมู่บ้านทั่วประเทศได้รับบริการน้ำสะอาดร้อยละ 100 ในปี 2564",
        "L01020701060103": "3. อัตราน้ำสูญเสียในระบบส่งและจำหน่ายน้ำในเขตนครหลวงน้อยกว่าร้อยละ 20 และในเขตภูมิภาค/เทศบาลน้อยกว่าร้อยละ 25 ในปี 2564"
    },
    "L010208010101": {
        "L01020801010101": "1. สัดส่วนค่าใช้จ่ายการลงทุนเพื่อการวิจัยและพัฒนาเพิ่มสู่ร้อยละ 1.5 ของผลิตภัณฑ์ มวลรวมในประเทศ",
        "L01020801010102": "2. สัดส่วนการลงทุนวิจัยและพัฒนาของภาคเอกชนต่อภาครัฐ เพิ่มเป็น 70:30",
        "L01020801010103": "3. สัดส่วนการลงทุนวิจัยและพัฒนาในอุตสาหกรรมยุทธศาสตร์และเป้าหมายของประเทศ : งานวิจัยพื้นฐานเพื่อสร้าง/สะสมองค์ความรู้ : ระบบโครงสร้างพื้นฐาน บุคลากร และระบบมาตรฐาน เพิ่มเป็น 55 : 35 : 30",
        "L01020801010104": "4. จำนวนบุคลากรด้านการวิจัยและพัฒนาเพิ่มเป็น 35 คนต่อประชากร 10,000 คน"
    },
    "L010208010201": {
        "L01020801020101": "1. อันดับความสามารถการแข่งขันโครงสร้างพื้นฐานด้านวิทยาศาสตร์ และด้านเทคโนโลยีจัดโดย IMD อยู่ในลำดับ 1 ใน 30",
        "L01020801020102": "2. ผลงานวิจัยและเทคโนโลยีพร้อมใช้ที่ถูกนำไปใช้ในการสร้างมูลค่าเชิงพาณิชย์ให้กับภาคการผลิตและบริการ และภาคธุรกิจ มีจำนวนไม่น้อยกว่าร้อยละ 30 ของผลงานทั้งหมด",
        "L01020801020103": "3. มูลค่าการลดหย่อนภาษีเงินได้นิติบุคคลสำหรับค่าใช้จ่ายวิจัยและพัฒนามีจำนวนเพิ่มขึ้นไม่น้อยกว่าร้อยละ 20 ต่อปี",
        "L01020801020104": "4. นวัตกรรมทางสังคมและนวัตกรรมสำหรับผู้สูงอายุและผู้พิการที่ผลิตได้เอง ภายในประเทศ มีจำนวนเพิ่มขึ้นไม่น้อยกว่า 1 เท่าตัว"
    },
    "L010209010101": {
        "L01020901010101": ".2 สัมประสิทธิ์การกระจายรายได้ระดับภาคลดลง",
        "L01020901010102": "1. ผลิตภัณฑ์ภาคต่อหัวระหว่างภาคลดลง"
    },
    "L010209010201": {
        "L01020901020101": "1. เมืองศูนย์กลางของจังหวัดที่ได้รับการพัฒนาเป็นเมืองน่าอยู่เพิ่มขึ้น"
    },
    "L010209010301": {
        "L01020901030101": "1. ค่าเฉลี่ยสารอินทรีย์ระเหยง่ายในพื้นที่อุตสาหกรรมหลักบริเวณมาบตาพุดไม่เกินเกณฑ์มาตรฐาน",
        "L01020901030102": "2. ข้อร้องเรียนของประชาชนเกี่ยวกับผลกระทบจากการประกอบการในพื้นที่ลดลง"
    },
    "L010209010401": {
        "L01020901040101": "1. มูลค่าการลงทุนในพื้นที่เศรษฐกิจพิเศษชายแดนเพิ่มขึ้นร้อยละ 20",
        "L01020901040102": "2. สถานประกอบการที่จดทะเบียนในพื้นที่เศรษฐกิจใหม่เพิ่มขึ้น"
    },
    "L010210010101": {
        "L01021001010101": "1. ความสำเร็จของไทยในการผลักดันให้เกิดโครงข่ายความเชื่อมโยงทางด้านโลจิสติกส์\nที่ครอบคลุมทางบก ทางราง ทางน้ า ทางอากาศ ภายในภูมิภาค เพื่ออำนวยความสะดวก ลดระยะเวลาและ\nต้นทุนในการขนส่ง",
        "L01021001010102": "2. ความสำเร็จของการดำเนินงานภายใต้ความตกลงว่าด้วยการขนส่งข้ามพรมแดนในอนุภูมิภาคลุ่มแม่น้ำโขง (Cross Border Transport Agreement: CBTA) ณ ด่านชายแดนระหว่างไทยกับประเทศเพื่อนบ้าน"
    },
    "L010210010201": {
        "L01021001020101": "1. ดัชนีย่อยความสามารถในการบริหารจัดการ ณ พรมแดนของประเทศไทย ในดัชนีการอำนวยความสะดวกทางการค้า (Enabling Trade Index)",
        "L01021001020102": "2. มูลค่าสินค้าขั้นกลางที่ผ่านด่านชายแดนระหว่างประเทศ",
        "L01021001020103": "3 มูลค่าการค้าการลงทุนระหว่างไทยกับประเทศในภูมิภาค",
        "L01021001020104": "4. มูลค่าการบริการของผู้ประกอบการไทยในประเทศในภูมิภาค"
    },
    "L010210010301": {
        "L01021001030101": "1. ปริมาณการขนส่งสินค้าและบริการเพิ่มขึ้น",
        "L01021001030102": "2. มูลค่าการค้าชายแดนระหว่างไทยกับประเทศในภูมิภาค",
        "L01021001030103": "3. มูลค่าการลงทุนของผู้ประกอบการไทยในประเทศในภูมิภาค",
        "L01021001030104": "4 กฎหมายและระเบียบต่างๆ ได้รับการปรับปรุงให้เอื้อต่อการเป็นศูนย์กลางการผลิต การลงทุน และบริการ"
    },
    "L010210010401": {
        "L01021001040101": "1. มูลค่าการให้ความช่วยเหลือของไทยในอนุภูมิภาคและภูมิภาค",
        "L01021001040102": "2. ความสำเร็จของโครงการพัฒนาร่วมกันระหว่างไทยกับประเทศในภูมิภาค",
        "L01021001040103": "3. ความก้าวหน้าในการดำเนินการให้เป็นไปตามเป้าหมายการพัฒนาที่ยั่งยืน"
    }
}