{
  "* สีแดง คือ เพิ่มใหม่": [null],
  "010001": ["Y1010101", "Y1010102", "Y1010103", "Y1010104", "Y1010105"],
  "010002": ["Y1010101", "Y1010102", "Y1010103", "Y1010104", "Y1010105"],
  "020001": ["Y1010102", "Y1010104", "Y2010101", "Y2010102", "Y3010102", "Y4010101", "Y5010104", "Y6010101"],
  "030001": ["Y1010101", "Y1010102", "Y1010105", "Y2010101", "Y2010102", "Y3010101", "Y3010102", "Y3010103", "Y4010101", "Y4010102", "Y4010103", "Y4010104", "Y5010101", "Y5010102", "Y5010103", "Y5010104", "Y6010101", "Y6010104"],
  "030002": ["Y1010101", "Y1010102", "Y1010105", "Y2010101", "Y2010102", "Y3010101", "Y3010102", "Y3010103", "Y4010101", "Y4010102", "Y4010103", "Y4010104", "Y5010101", "Y5010102", "Y5010103", "Y5010104", "Y6010101", "Y6010104"],
  "040001": ["Y1010101", "Y1010102", "Y2010101", "Y2010102", "Y3010101", "Y4010101", "Y4010102", "Y4010103", "Y5010101", "Y5010102", "Y5010103", "Y6010101", "Y6010102", "Y6010104"],
  "040002": ["Y1010101", "Y1010102", "Y2010101", "Y2010102", "Y3010101", "Y4010101", "Y4010102", "Y4010103", "Y5010101", "Y5010102", "Y5010103", "Y6010101", "Y6010102", "Y6010104"],
  "050001": ["Y1010101", "Y2010101", "Y2010102", "Y3010101", "Y3010102", "Y4010101", "Y4010102", "Y4010103", "Y5010103", "Y6010101", "Y6010104"],
  "050002": ["Y1010101", "Y2010101", "Y2010102", "Y3010101", "Y3010102", "Y4010101", "Y4010102", "Y4010103", "Y5010101", "Y5010102", "Y5010103", "Y5010104", "Y6010101", "Y6010104"],
  "050003": ["Y1010101", "Y2010101", "Y2010102", "Y3010101", "Y3010102", "Y4010101", "Y4010103", "Y5010102", "Y6010101"],
  "060001": ["Y2010101", "Y2010102", "Y4010101", "Y4010102", "Y4010103", "Y5010102", "Y5010103", "Y5010104", "Y6010101", "Y6010102", "Y6010103"],
  "060002": ["Y2010101", "Y2010102", "Y4010102", "Y4010103", "Y5010101", "Y5010102", "Y5010103", "Y5010104", "Y6010101"],
  "060003": ["Y2010101", "Y2010102", "Y4010101", "Y4010102", "Y4010103", "Y5010101", "Y5010102", "Y5010103", "Y5010104", "Y6010101", "Y6010103"],
  "070001": ["Y1010102", "Y1010103", "Y2010101", "Y2010102", "Y5010101", "Y5010103", "Y6010101", "Y6010102", "Y6010103"],
  "080001": ["Y1010101", "Y1010102", "Y2010101", "Y2010102", "Y3010101", "Y3010102", "Y4010101", "Y4010102", "Y4010103", "Y5010103", "Y6010101", "Y6010102"],
  "090001": ["Y1010101", "Y1010102", "Y2010101", "Y2010102", "Y3010101", "Y3010102", "Y4010102", "Y5010102", "Y5010103", "Y5010104", "Y6010101", "Y6010102"],
  "090002": ["Y1010101", "Y2010101", "Y2010102", "Y3010101", "Y3010102", "Y4010102", "Y4010103", "Y5010104", "Y6010101", "Y6010102"],
  "100001": ["Y1010101", "Y3010101", "Y4010101", "Y5010104", "Y6010103"],
  "110001": ["Y1010102", "Y2010102", "Y3010101", "Y3010102", "Y4010101", "Y4010103", "Y6010101", "Y6010102"],
  "120001": ["Y3010101", "Y3010102"],
  "120002": ["Y3010101", "Y3010102"],
  "130001": ["Y2010101", "Y2010102", "Y3010101", "Y3010102", "Y4010101", "Y4010102", "Y5010102", "Y6010101", "Y6010102"],
  "140001": ["Y3010101", "Y3010102"],
  "150001": ["Y1010101", "Y3010102", "Y4010101", "Y4010102", "Y4010103"],
  "160001": ["Y2010101", "Y2010102", "Y3010101", "Y4010101", "Y4010102", "Y4010103", "Y6010101"],
  "170001": ["Y3010102", "Y4010101", "Y4010102", "Y4010103", "Y6010101", "Y6010102", "Y6010104"],
  "180001": ["Y1010101", "Y1010102", "Y2010101", "Y2010102", "Y3010101", "Y3010102", "Y4010101", "Y4010102", "Y4010103", "Y5010101", "Y5010102", "Y5010103", "Y5010104", "Y6010101", "Y6010104"],
  "190001": ["Y1010101", "Y1010102", "Y1010103", "Y2010101", "Y5010101", "Y5010103", "Y6010103", "Y6010104"],
  "190002": ["Y1010101", "Y2010101", "Y5010101", "Y5010102", "Y6010101", "Y6010103", "Y6010104"],
  "190003": ["Y1010101", "Y1010102", "Y2010101", "Y5010101", "Y5010102", "Y6010101", "Y6010104"],
  "200001": ["Y1010101", "Y2010101", "Y2010102", "Y3010102", "Y4010101", "Y4010103", "Y5010104", "Y6010101", "Y6010102"],
  "200002": ["Y1010101", "Y2010101", "Y2010102", "Y3010102", "Y4010101", "Y4010103", "Y5010104", "Y6010101", "Y6010102"],
  "210001": ["Y1010101", "Y1010103", "Y1010104", "Y1010105", "Y3010101", "Y6010101", "Y6010103", "Y6010104"],
  "220001": ["Y1010102", "Y4010101", "Y6010101", "Y6010102", "Y6010103", "Y6010104"],
  "220002": ["Y1010102", "Y4010101", "Y6010101", "Y6010102", "Y6010103", "Y6010104"],
  "230001": ["Y1010103", "Y2010101", "Y2010102", "Y3010102", "Y4010101", "Y4010102", "Y4010103", "Y5010101", "Y5010102", "Y5010103", "Y6010101", "Y6010102"],
  "230002": ["Y1010103", "Y2010101", "Y2010102", "Y3010102", "Y4010101", "Y4010102", "Y4010103", "Y5010101", "Y5010102", "Y5010103", "Y6010101", "Y6010102"]
}
